[{"_id":{"$oid":"5c5faf6afc13ae75750003e8"},"numero":1,"codigoChip":"000000000009F0DB"},
{"_id":{"$oid":"5c5faf6afc13ae75750003e9"},"numero":2,"codigoChip":"00000000F2CAFF3E"},
{"_id":{"$oid":"5c5faf6afc13ae75750003ea"},"numero":3,"codigoChip":"000000000000E5FD"},
{"_id":{"$oid":"5c5faf6afc13ae75750003eb"},"numero":4,"codigoChip":"000000002F0233E3"},
{"_id":{"$oid":"5c5faf6afc13ae75750003ec"},"numero":5,"codigoChip":"0000000000F6F06F"},
{"_id":{"$oid":"5c5faf6afc13ae75750003ed"},"numero":6,"codigoChip":"000000001D039FF5"},
{"_id":{"$oid":"5c5faf6afc13ae75750003ee"},"numero":7,"codigoChip":"0000000091040E9E"},
{"_id":{"$oid":"5c5faf6afc13ae75750003ef"},"numero":8,"codigoChip":"0000000000E940FF"},
{"_id":{"$oid":"5c5faf6afc13ae75750003f0"},"numero":9,"codigoChip":"000000000FF5DFEC"},
{"_id":{"$oid":"5c5faf6afc13ae75750003f1"},"numero":10,"codigoChip":"0000000006F792F8"},
{"_id":{"$oid":"5c5faf6afc13ae75750003f2"},"numero":11,"codigoChip":"00000000E4DFFF08"},
{"_id":{"$oid":"5c5faf6afc13ae75750003f3"},"numero":12,"codigoChip":"00000000000FCFE6"},
{"_id":{"$oid":"5c5faf6afc13ae75750003f4"},"numero":13,"codigoChip":"000000000000FDEF"},
{"_id":{"$oid":"5c5faf6afc13ae75750003f5"},"numero":14,"codigoChip":"000000000799FD4F"},
{"_id":{"$oid":"5c5faf6afc13ae75750003f6"},"numero":15,"codigoChip":"000000007EF3DFEF"},
{"_id":{"$oid":"5c5faf6afc13ae75750003f7"},"numero":16,"codigoChip":"000000000000EFFF"},
{"_id":{"$oid":"5c5faf6afc13ae75750003f8"},"numero":17,"codigoChip":"000000000087AF01"},
{"_id":{"$oid":"5c5faf6afc13ae75750003f9"},"numero":18,"codigoChip":"0000000000067E0F"},
{"_id":{"$oid":"5c5faf6afc13ae75750003fa"},"numero":19,"codigoChip":"00000000FFE0F23F"},
{"_id":{"$oid":"5c5faf6afc13ae75750003fb"},"numero":20,"codigoChip":"00000000FFFFFE52"},
{"_id":{"$oid":"5c5faf6afc13ae75750003fc"},"numero":21,"codigoChip":"000000000000F3B2"},
{"_id":{"$oid":"5c5faf6afc13ae75750003fd"},"numero":22,"codigoChip":"00000000002FF2DE"},
{"_id":{"$oid":"5c5faf6afc13ae75750003fe"},"numero":23,"codigoChip":"000000000F746F63"},
{"_id":{"$oid":"5c5faf6afc13ae75750003ff"},"numero":24,"codigoChip":"000000000001F8FE"},
{"_id":{"$oid":"5c5faf6afc13ae7575000400"},"numero":25,"codigoChip":"0000000000E6FFE7"},
{"_id":{"$oid":"5c5faf6afc13ae7575000401"},"numero":26,"codigoChip":"00000000000B8DF2"},
{"_id":{"$oid":"5c5faf6afc13ae7575000402"},"numero":27,"codigoChip":"000000000074719B"},
{"_id":{"$oid":"5c5faf6afc13ae7575000403"},"numero":28,"codigoChip":"000000000DEFFCE0"},
{"_id":{"$oid":"5c5faf6afc13ae7575000404"},"numero":29,"codigoChip":"000000000002851F"},
{"_id":{"$oid":"5c5faf6afc13ae7575000405"},"numero":30,"codigoChip":"00000000098FF756"},
{"_id":{"$oid":"5c5faf6afc13ae7575000406"},"numero":31,"codigoChip":"00000000007EE9FF"},
{"_id":{"$oid":"5c5faf6afc13ae7575000407"},"numero":32,"codigoChip":"000000000FF7FE43"},
{"_id":{"$oid":"5c5faf6afc13ae7575000408"},"numero":33,"codigoChip":"0000000000009E5E"},
{"_id":{"$oid":"5c5faf6afc13ae7575000409"},"numero":34,"codigoChip":"000000000FB4DFFE"},
{"_id":{"$oid":"5c5faf6afc13ae757500040a"},"numero":35,"codigoChip":"0000000000001F4D"},
{"_id":{"$oid":"5c5faf6afc13ae757500040b"},"numero":36,"codigoChip":"0000000000001F1F"},
{"_id":{"$oid":"5c5faf6afc13ae757500040c"},"numero":37,"codigoChip":"00000000E67DFE2F"},
{"_id":{"$oid":"5c5faf6afc13ae757500040d"},"numero":38,"codigoChip":"00000000000DE1A8"},
{"_id":{"$oid":"5c5faf6afc13ae757500040e"},"numero":39,"codigoChip":"00000000006E59F2"},
{"_id":{"$oid":"5c5faf6afc13ae757500040f"},"numero":40,"codigoChip":"0000000000000972"},
{"_id":{"$oid":"5c5faf6afc13ae7575000410"},"numero":41,"codigoChip":"00000000000050FF"},
{"_id":{"$oid":"5c5faf6afc13ae7575000411"},"numero":42,"codigoChip":"00000000000FC7D1"},
{"_id":{"$oid":"5c5faf6afc13ae7575000412"},"numero":43,"codigoChip":"000000000E9BF97E"},
{"_id":{"$oid":"5c5faf6afc13ae7575000413"},"numero":44,"codigoChip":"000000005FFEFDF5"},
{"_id":{"$oid":"5c5faf6afc13ae7575000414"},"numero":45,"codigoChip":"00000000004FC1EE"},
{"_id":{"$oid":"5c5faf6afc13ae7575000415"},"numero":46,"codigoChip":"0000000000004F09"},
{"_id":{"$oid":"5c5faf6afc13ae7575000416"},"numero":47,"codigoChip":"00000000F7EEE9F1"},
{"_id":{"$oid":"5c5faf6afc13ae7575000417"},"numero":48,"codigoChip":"00000000FFFFF953"},
{"_id":{"$oid":"5c5faf6afc13ae7575000418"},"numero":49,"codigoChip":"000000000CA6F41F"},
{"_id":{"$oid":"5c5faf6afc13ae7575000419"},"numero":50,"codigoChip":"0000000008F5E6EF"},
{"_id":{"$oid":"5c5faf6afc13ae757500041a"},"numero":51,"codigoChip":"0000000000C15FFF"},
{"_id":{"$oid":"5c5faf6afc13ae757500041b"},"numero":52,"codigoChip":"0000000000F870E1"},
{"_id":{"$oid":"5c5faf6afc13ae757500041c"},"numero":53,"codigoChip":"00000000005FFD7E"},
{"_id":{"$oid":"5c5faf6afc13ae757500041d"},"numero":54,"codigoChip":"000000004F280F66"},
{"_id":{"$oid":"5c5faf6afc13ae757500041e"},"numero":55,"codigoChip":"00000000005F60FF"},
{"_id":{"$oid":"5c5faf6afc13ae757500041f"},"numero":56,"codigoChip":"00000000007C9B5F"},
{"_id":{"$oid":"5c5faf6afc13ae7575000420"},"numero":57,"codigoChip":"00000000C053F0F3"},
{"_id":{"$oid":"5c5faf6afc13ae7575000421"},"numero":58,"codigoChip":"000000000004EF71"},
{"_id":{"$oid":"5c5faf6afc13ae7575000422"},"numero":59,"codigoChip":"0000000000005BF4"},
{"_id":{"$oid":"5c5faf6afc13ae7575000423"},"numero":60,"codigoChip":"0000000000007BF3"},
{"_id":{"$oid":"5c5faf6afc13ae7575000424"},"numero":61,"codigoChip":"00000000FEDFE0F2"},
{"_id":{"$oid":"5c5faf6afc13ae7575000425"},"numero":62,"codigoChip":"00000000E87B1843"},
{"_id":{"$oid":"5c5faf6afc13ae7575000426"},"numero":63,"codigoChip":"00000000000034CF"},
{"_id":{"$oid":"5c5faf6afc13ae7575000427"},"numero":64,"codigoChip":"00000000E2F5EEE1"},
{"_id":{"$oid":"5c5faf6afc13ae7575000428"},"numero":65,"codigoChip":"000000000000FF0E"},
{"_id":{"$oid":"5c5faf6afc13ae7575000429"},"numero":66,"codigoChip":"00000000FB6EF41F"},
{"_id":{"$oid":"5c5faf6afc13ae757500042a"},"numero":67,"codigoChip":"000000004F961F01"},
{"_id":{"$oid":"5c5faf6afc13ae757500042b"},"numero":68,"codigoChip":"00000000083F2800"},
{"_id":{"$oid":"5c5faf6afc13ae757500042c"},"numero":69,"codigoChip":"000000000000FBFF"},
{"_id":{"$oid":"5c5faf6afc13ae757500042d"},"numero":70,"codigoChip":"00000000009F0FDF"},
{"_id":{"$oid":"5c5faf6afc13ae757500042e"},"numero":71,"codigoChip":"0000000000EE8D9E"},
{"_id":{"$oid":"5c5faf6afc13ae757500042f"},"numero":72,"codigoChip":"000000000000F9EF"},
{"_id":{"$oid":"5c5faf6afc13ae7575000430"},"numero":73,"codigoChip":"0000000000F9FFCF"},
{"_id":{"$oid":"5c5faf6afc13ae7575000431"},"numero":74,"codigoChip":"0000000000063EF8"},
{"_id":{"$oid":"5c5faf6afc13ae7575000432"},"numero":75,"codigoChip":"0000000000EF2934"},
{"_id":{"$oid":"5c5faf6afc13ae7575000433"},"numero":76,"codigoChip":"000000000059AF3E"},
{"_id":{"$oid":"5c5faf6afc13ae7575000434"},"numero":77,"codigoChip":"00000000003EFC0F"},
{"_id":{"$oid":"5c5faf6afc13ae7575000435"},"numero":78,"codigoChip":"000000002252E7FA"},
{"_id":{"$oid":"5c5faf6afc13ae7575000436"},"numero":79,"codigoChip":"0000000000FEDE4C"},
{"_id":{"$oid":"5c5faf6afc13ae7575000437"},"numero":80,"codigoChip":"000000006EF4FFFE"},
{"_id":{"$oid":"5c5faf6afc13ae7575000438"},"numero":81,"codigoChip":"00000000000095E5"},
{"_id":{"$oid":"5c5faf6afc13ae7575000439"},"numero":82,"codigoChip":"00000000000FE6F7"},
{"_id":{"$oid":"5c5faf6afc13ae757500043a"},"numero":83,"codigoChip":"0000000000EE2FEF"},
{"_id":{"$oid":"5c5faf6afc13ae757500043b"},"numero":84,"codigoChip":"0000000000009F14"},
{"_id":{"$oid":"5c5faf6afc13ae757500043c"},"numero":85,"codigoChip":"0000000000E96F32"},
{"_id":{"$oid":"5c5faf6afc13ae757500043d"},"numero":86,"codigoChip":"00000000000036F7"},
{"_id":{"$oid":"5c5faf6afc13ae757500043e"},"numero":87,"codigoChip":"00000000000FFFCE"},
{"_id":{"$oid":"5c5faf6afc13ae757500043f"},"numero":88,"codigoChip":"00000000AFDF69F0"},
{"_id":{"$oid":"5c5faf6afc13ae7575000440"},"numero":89,"codigoChip":"000000000000E7FF"},
{"_id":{"$oid":"5c5faf6afc13ae7575000441"},"numero":90,"codigoChip":"00000000000201D9"},
{"_id":{"$oid":"5c5faf6afc13ae7575000442"},"numero":91,"codigoChip":"0000000004FFDFEE"},
{"_id":{"$oid":"5c5faf6afc13ae7575000443"},"numero":92,"codigoChip":"000000000007EF68"},
{"_id":{"$oid":"5c5faf6afc13ae7575000444"},"numero":93,"codigoChip":"000000000D981DF4"},
{"_id":{"$oid":"5c5faf6afc13ae7575000445"},"numero":94,"codigoChip":"00000000F62D8427"},
{"_id":{"$oid":"5c5faf6afc13ae7575000446"},"numero":95,"codigoChip":"00000000FE54F6FF"},
{"_id":{"$oid":"5c5faf6afc13ae7575000447"},"numero":96,"codigoChip":"0000000000007DF3"},
{"_id":{"$oid":"5c5faf6afc13ae7575000448"},"numero":97,"codigoChip":"000000000000FFF2"},
{"_id":{"$oid":"5c5faf6afc13ae7575000449"},"numero":98,"codigoChip":"0000000000198707"},
{"_id":{"$oid":"5c5faf6afc13ae757500044a"},"numero":99,"codigoChip":"00000000002CDCFE"},
{"_id":{"$oid":"5c5faf6afc13ae757500044b"},"numero":100,"codigoChip":"000000000B7EF7FF"},
{"_id":{"$oid":"5c5faf6afc13ae757500044c"},"numero":101,"codigoChip":"000000000338F3E2"},
{"_id":{"$oid":"5c5faf6afc13ae757500044d"},"numero":102,"codigoChip":"000000000009AD2E"},
{"_id":{"$oid":"5c5faf6afc13ae757500044e"},"numero":103,"codigoChip":"000000000FC7CE4F"},
{"_id":{"$oid":"5c5faf6afc13ae757500044f"},"numero":104,"codigoChip":"0000000000F59DEF"},
{"_id":{"$oid":"5c5faf6afc13ae7575000450"},"numero":105,"codigoChip":"0000000000FFE0E1"},
{"_id":{"$oid":"5c5faf6afc13ae7575000451"},"numero":106,"codigoChip":"0000000001FF775F"},
{"_id":{"$oid":"5c5faf6afc13ae7575000452"},"numero":107,"codigoChip":"000000000000404F"},
{"_id":{"$oid":"5c5faf6afc13ae7575000453"},"numero":108,"codigoChip":"000000000000403E"},
{"_id":{"$oid":"5c5faf6afc13ae7575000454"},"numero":109,"codigoChip":"000000000000D51F"},
{"_id":{"$oid":"5c5faf6afc13ae7575000455"},"numero":110,"codigoChip":"0000000000E86196"},
{"_id":{"$oid":"5c5faf6afc13ae7575000456"},"numero":111,"codigoChip":"00000000000FD90A"},
{"_id":{"$oid":"5c5faf6afc13ae7575000457"},"numero":112,"codigoChip":"00000000F51ED07F"},
{"_id":{"$oid":"5c5faf6afc13ae7575000458"},"numero":113,"codigoChip":"00000000000E7F3D"},
{"_id":{"$oid":"5c5faf6afc13ae7575000459"},"numero":114,"codigoChip":"0000000000DE553F"},
{"_id":{"$oid":"5c5faf6afc13ae757500045a"},"numero":115,"codigoChip":"0000000000085CFF"},
{"_id":{"$oid":"5c5faf6afc13ae757500045b"},"numero":116,"codigoChip":"000000000098453F"},
{"_id":{"$oid":"5c5faf6afc13ae757500045c"},"numero":117,"codigoChip":"0000000000007ED9"},
{"_id":{"$oid":"5c5faf6afc13ae757500045d"},"numero":118,"codigoChip":"00000000000F1EF0"},
{"_id":{"$oid":"5c5faf6afc13ae757500045e"},"numero":119,"codigoChip":"000000000000EF4F"},
{"_id":{"$oid":"5c5faf6afc13ae757500045f"},"numero":120,"codigoChip":"000000007FAD617F"},
{"_id":{"$oid":"5c5faf6afc13ae7575000460"},"numero":121,"codigoChip":"00000000EDF48F6E"},
{"_id":{"$oid":"5c5faf6afc13ae7575000461"},"numero":122,"codigoChip":"00000000D873FF8A"},
{"_id":{"$oid":"5c5faf6afc13ae7575000462"},"numero":123,"codigoChip":"00000000548F25E9"},
{"_id":{"$oid":"5c5faf6afc13ae7575000463"},"numero":124,"codigoChip":"00000000000F12F2"},
{"_id":{"$oid":"5c5faf6afc13ae7575000464"},"numero":125,"codigoChip":"000000000054DC47"},
{"_id":{"$oid":"5c5faf6afc13ae7575000465"},"numero":126,"codigoChip":"0000000000002193"},
{"_id":{"$oid":"5c5faf6afc13ae7575000466"},"numero":127,"codigoChip":"0000000000963ED8"},
{"_id":{"$oid":"5c5faf6afc13ae7575000467"},"numero":128,"codigoChip":"000000000873DFEE"},
{"_id":{"$oid":"5c5faf6afc13ae7575000468"},"numero":129,"codigoChip":"0000000000EE65FA"},
{"_id":{"$oid":"5c5faf6afc13ae7575000469"},"numero":130,"codigoChip":"000000000006212E"},
{"_id":{"$oid":"5c5faf6afc13ae757500046a"},"numero":131,"codigoChip":"00000000000069EF"},
{"_id":{"$oid":"5c5faf6afc13ae757500046b"},"numero":132,"codigoChip":"0000000000CFF8B8"},
{"_id":{"$oid":"5c5faf6afc13ae757500046c"},"numero":133,"codigoChip":"00000000000CEF10"},
{"_id":{"$oid":"5c5faf6afc13ae757500046d"},"numero":134,"codigoChip":"000000000FFEF656"},
{"_id":{"$oid":"5c5faf6afc13ae757500046e"},"numero":135,"codigoChip":"000000000000FFF9"},
{"_id":{"$oid":"5c5faf6afc13ae757500046f"},"numero":136,"codigoChip":"0000000000005FF8"},
{"_id":{"$oid":"5c5faf6afc13ae7575000470"},"numero":137,"codigoChip":"00000000014FE43D"},
{"_id":{"$oid":"5c5faf6afc13ae7575000471"},"numero":138,"codigoChip":"00000000005EFAD8"},
{"_id":{"$oid":"5c5faf6afc13ae7575000472"},"numero":139,"codigoChip":"000000000000B1FF"},
{"_id":{"$oid":"5c5faf6afc13ae7575000473"},"numero":140,"codigoChip":"00000000FF0D8FFF"},
{"_id":{"$oid":"5c5faf6afc13ae7575000474"},"numero":141,"codigoChip":"000000000000F4DD"},
{"_id":{"$oid":"5c5faf6afc13ae7575000475"},"numero":142,"codigoChip":"00000000000510D4"},
{"_id":{"$oid":"5c5faf6afc13ae7575000476"},"numero":143,"codigoChip":"0000000000A43638"},
{"_id":{"$oid":"5c5faf6afc13ae7575000477"},"numero":144,"codigoChip":"000000000000171F"},
{"_id":{"$oid":"5c5faf6afc13ae7575000478"},"numero":145,"codigoChip":"0000000000001F67"},
{"_id":{"$oid":"5c5faf6afc13ae7575000479"},"numero":146,"codigoChip":"0000000000EB97A9"},
{"_id":{"$oid":"5c5faf6afc13ae757500047a"},"numero":147,"codigoChip":"000000000005B109"},
{"_id":{"$oid":"5c5faf6afc13ae757500047b"},"numero":148,"codigoChip":"00000000008ED3DE"},
{"_id":{"$oid":"5c5faf6afc13ae757500047c"},"numero":149,"codigoChip":"000000000000FEF2"},
{"_id":{"$oid":"5c5faf6afc13ae757500047d"},"numero":150,"codigoChip":"0000000000024FEC"},
{"_id":{"$oid":"5c5faf6afc13ae757500047e"},"numero":151,"codigoChip":"0000000000E3FE9F"},
{"_id":{"$oid":"5c5faf6afc13ae757500047f"},"numero":152,"codigoChip":"000000000000E86E"},
{"_id":{"$oid":"5c5faf6afc13ae7575000480"},"numero":153,"codigoChip":"000000000000DFF2"},
{"_id":{"$oid":"5c5faf6afc13ae7575000481"},"numero":154,"codigoChip":"00000000E44EE7FF"},
{"_id":{"$oid":"5c5faf6afc13ae7575000482"},"numero":155,"codigoChip":"00000000F0FFAF4F"},
{"_id":{"$oid":"5c5faf6afc13ae7575000483"},"numero":156,"codigoChip":"00000000005F9C7D"},
{"_id":{"$oid":"5c5faf6afc13ae7575000484"},"numero":157,"codigoChip":"00000000013609C9"},
{"_id":{"$oid":"5c5faf6afc13ae7575000485"},"numero":158,"codigoChip":"000000000000F1F0"},
{"_id":{"$oid":"5c5faf6afc13ae7575000486"},"numero":159,"codigoChip":"00000000004EFFE8"},
{"_id":{"$oid":"5c5faf6afc13ae7575000487"},"numero":160,"codigoChip":"00000000000EFD18"},
{"_id":{"$oid":"5c5faf6afc13ae7575000488"},"numero":161,"codigoChip":"0000000000008099"},
{"_id":{"$oid":"5c5faf6afc13ae7575000489"},"numero":162,"codigoChip":"000000000000937D"},
{"_id":{"$oid":"5c5faf6afc13ae757500048a"},"numero":163,"codigoChip":"000000000000F8FF"},
{"_id":{"$oid":"5c5faf6afc13ae757500048b"},"numero":164,"codigoChip":"000000000000E550"},
{"_id":{"$oid":"5c5faf6afc13ae757500048c"},"numero":165,"codigoChip":"00000000701D8EE9"},
{"_id":{"$oid":"5c5faf6afc13ae757500048d"},"numero":166,"codigoChip":"000000006F7E8F36"},
{"_id":{"$oid":"5c5faf6afc13ae757500048e"},"numero":167,"codigoChip":"00000000008F38DC"},
{"_id":{"$oid":"5c5faf6afc13ae757500048f"},"numero":168,"codigoChip":"000000000004FFEF"},
{"_id":{"$oid":"5c5faf6afc13ae7575000490"},"numero":169,"codigoChip":"0000000006EF36E5"},
{"_id":{"$oid":"5c5faf6afc13ae7575000491"},"numero":170,"codigoChip":"0000000000076E9D"},
{"_id":{"$oid":"5c5faf6afc13ae7575000492"},"numero":171,"codigoChip":"000000000021F540"},
{"_id":{"$oid":"5c5faf6afc13ae7575000493"},"numero":172,"codigoChip":"00000000009DF829"},
{"_id":{"$oid":"5c5faf6afc13ae7575000494"},"numero":173,"codigoChip":"000000000001F2FD"},
{"_id":{"$oid":"5c5faf6afc13ae7575000495"},"numero":174,"codigoChip":"00000000000BEFED"},
{"_id":{"$oid":"5c5faf6afc13ae7575000496"},"numero":175,"codigoChip":"0000000000062173"},
{"_id":{"$oid":"5c5faf6afc13ae7575000497"},"numero":176,"codigoChip":"000000006E644618"},
{"_id":{"$oid":"5c5faf6afc13ae7575000498"},"numero":177,"codigoChip":"000000000943F09E"},
{"_id":{"$oid":"5c5faf6afc13ae7575000499"},"numero":178,"codigoChip":"0000000000469498"},
{"_id":{"$oid":"5c5faf6afc13ae757500049a"},"numero":179,"codigoChip":"000000000000F582"},
{"_id":{"$oid":"5c5faf6afc13ae757500049b"},"numero":180,"codigoChip":"000000008F59364F"},
{"_id":{"$oid":"5c5faf6afc13ae757500049c"},"numero":181,"codigoChip":"000000000024F8A6"},
{"_id":{"$oid":"5c5faf6afc13ae757500049d"},"numero":182,"codigoChip":"0000000000014F89"},
{"_id":{"$oid":"5c5faf6afc13ae757500049e"},"numero":183,"codigoChip":"0000000000002F68"},
{"_id":{"$oid":"5c5faf6afc13ae757500049f"},"numero":184,"codigoChip":"0000000000EFE520"},
{"_id":{"$oid":"5c5faf6afc13ae75750004a0"},"numero":185,"codigoChip":"000000000F08ED0F"},
{"_id":{"$oid":"5c5faf6afc13ae75750004a1"},"numero":186,"codigoChip":"000000000F4FEE93"},
{"_id":{"$oid":"5c5faf6afc13ae75750004a2"},"numero":187,"codigoChip":"00000000C3F31AF7"},
{"_id":{"$oid":"5c5faf6afc13ae75750004a3"},"numero":188,"codigoChip":"000000000F7E98E0"},
{"_id":{"$oid":"5c5faf6afc13ae75750004a4"},"numero":189,"codigoChip":"00000000E5FE162F"},
{"_id":{"$oid":"5c5faf6afc13ae75750004a5"},"numero":190,"codigoChip":"000000000E6E55FD"},
{"_id":{"$oid":"5c5faf6afc13ae75750004a6"},"numero":191,"codigoChip":"000000000DE75DF8"},
{"_id":{"$oid":"5c5faf6afc13ae75750004a7"},"numero":192,"codigoChip":"000000000000EFE4"},
{"_id":{"$oid":"5c5faf6afc13ae75750004a8"},"numero":193,"codigoChip":"000000009ECE65F0"},
{"_id":{"$oid":"5c5faf6afc13ae75750004a9"},"numero":194,"codigoChip":"000000000009144F"},
{"_id":{"$oid":"5c5faf6afc13ae75750004aa"},"numero":195,"codigoChip":"000000000047ED2F"},
{"_id":{"$oid":"5c5faf6afc13ae75750004ab"},"numero":196,"codigoChip":"00000000390E5085"},
{"_id":{"$oid":"5c5faf6afc13ae75750004ac"},"numero":197,"codigoChip":"00000000000E4E5B"},
{"_id":{"$oid":"5c5faf6afc13ae75750004ad"},"numero":198,"codigoChip":"000000000001D8D1"},
{"_id":{"$oid":"5c5faf6afc13ae75750004ae"},"numero":199,"codigoChip":"00000000008FF51E"},
{"_id":{"$oid":"5c5faf6afc13ae75750004af"},"numero":200,"codigoChip":"0000000000A66EF4"},
{"_id":{"$oid":"5c5faf6afc13ae75750004b0"},"numero":201,"codigoChip":"00000000005EDF70"},
{"_id":{"$oid":"5c5faf6afc13ae75750004b1"},"numero":202,"codigoChip":"000000000000F3FF"},
{"_id":{"$oid":"5c5faf6afc13ae75750004b2"},"numero":203,"codigoChip":"00000000DD91AF2B"},
{"_id":{"$oid":"5c5faf6afc13ae75750004b3"},"numero":204,"codigoChip":"00000000000D1FAF"},
{"_id":{"$oid":"5c5faf6afc13ae75750004b4"},"numero":205,"codigoChip":"00000000E7385FEC"},
{"_id":{"$oid":"5c5faf6afc13ae75750004b5"},"numero":206,"codigoChip":"000000000000265D"},
{"_id":{"$oid":"5c5faf6afc13ae75750004b6"},"numero":207,"codigoChip":"0000000000718D9D"},
{"_id":{"$oid":"5c5faf6afc13ae75750004b7"},"numero":208,"codigoChip":"0000000000F3E70F"},
{"_id":{"$oid":"5c5faf6afc13ae75750004b8"},"numero":209,"codigoChip":"000000000074E03A"},
{"_id":{"$oid":"5c5faf6afc13ae75750004b9"},"numero":210,"codigoChip":"000000000000CFCF"},
{"_id":{"$oid":"5c5faf6afc13ae75750004ba"},"numero":211,"codigoChip":"0000000000FFDFAF"},
{"_id":{"$oid":"5c5faf6afc13ae75750004bb"},"numero":212,"codigoChip":"00000000000D0F67"},
{"_id":{"$oid":"5c5faf6afc13ae75750004bc"},"numero":213,"codigoChip":"0000000000000342"},
{"_id":{"$oid":"5c5faf6afc13ae75750004bd"},"numero":214,"codigoChip":"00000000000EE0CC"},
{"_id":{"$oid":"5c5faf6afc13ae75750004be"},"numero":215,"codigoChip":"0000000000E5F05C"},
{"_id":{"$oid":"5c5faf6afc13ae75750004bf"},"numero":216,"codigoChip":"000000000000FD07"},
{"_id":{"$oid":"5c5faf6afc13ae75750004c0"},"numero":217,"codigoChip":"000000000001EF83"},
{"_id":{"$oid":"5c5faf6afc13ae75750004c1"},"numero":218,"codigoChip":"000000000E7CCC21"},
{"_id":{"$oid":"5c5faf6afc13ae75750004c2"},"numero":219,"codigoChip":"0000000000008CF1"},
{"_id":{"$oid":"5c5faf6afc13ae75750004c3"},"numero":220,"codigoChip":"0000000000FEE4FE"},
{"_id":{"$oid":"5c5faf6afc13ae75750004c4"},"numero":221,"codigoChip":"00000000000FEF58"},
{"_id":{"$oid":"5c5faf6afc13ae75750004c5"},"numero":222,"codigoChip":"000000000000889C"},
{"_id":{"$oid":"5c5faf6afc13ae75750004c6"},"numero":223,"codigoChip":"000000006587DED7"},
{"_id":{"$oid":"5c5faf6afc13ae75750004c7"},"numero":224,"codigoChip":"0000000000009F45"},
{"_id":{"$oid":"5c5faf6afc13ae75750004c8"},"numero":225,"codigoChip":"0000000000005F0F"},
{"_id":{"$oid":"5c5faf6afc13ae75750004c9"},"numero":226,"codigoChip":"0000000000E1563E"},
{"_id":{"$oid":"5c5faf6afc13ae75750004ca"},"numero":227,"codigoChip":"0000000000007F7C"},
{"_id":{"$oid":"5c5faf6afc13ae75750004cb"},"numero":228,"codigoChip":"00000000008666ED"},
{"_id":{"$oid":"5c5faf6afc13ae75750004cc"},"numero":229,"codigoChip":"0000000000E2EEC8"},
{"_id":{"$oid":"5c5faf6afc13ae75750004cd"},"numero":230,"codigoChip":"00000000000E0F98"},
{"_id":{"$oid":"5c5faf6afc13ae75750004ce"},"numero":231,"codigoChip":"00000000000AF0FD"},
{"_id":{"$oid":"5c5faf6afc13ae75750004cf"},"numero":232,"codigoChip":"000000008446DE20"},
{"_id":{"$oid":"5c5faf6afc13ae75750004d0"},"numero":233,"codigoChip":"00000000F2B7F48F"},
{"_id":{"$oid":"5c5faf6afc13ae75750004d1"},"numero":234,"codigoChip":"000000000FFEEDED"},
{"_id":{"$oid":"5c5faf6afc13ae75750004d2"},"numero":235,"codigoChip":"0000000000000FF4"},
{"_id":{"$oid":"5c5faf6afc13ae75750004d3"},"numero":236,"codigoChip":"000000000DE08F12"},
{"_id":{"$oid":"5c5faf6afc13ae75750004d4"},"numero":237,"codigoChip":"00000000000FEEFE"},
{"_id":{"$oid":"5c5faf6afc13ae75750004d5"},"numero":238,"codigoChip":"000000000000F6DF"},
{"_id":{"$oid":"5c5faf6afc13ae75750004d6"},"numero":239,"codigoChip":"00000000000887F9"},
{"_id":{"$oid":"5c5faf6afc13ae75750004d7"},"numero":240,"codigoChip":"000000000437E1FC"},
{"_id":{"$oid":"5c5faf6afc13ae75750004d8"},"numero":241,"codigoChip":"000000001FACFF0E"},
{"_id":{"$oid":"5c5faf6afc13ae75750004d9"},"numero":242,"codigoChip":"00000000002EF77F"},
{"_id":{"$oid":"5c5faf6afc13ae75750004da"},"numero":243,"codigoChip":"000000000FD41690"},
{"_id":{"$oid":"5c5faf6afc13ae75750004db"},"numero":244,"codigoChip":"000000008F06205F"},
{"_id":{"$oid":"5c5faf6afc13ae75750004dc"},"numero":245,"codigoChip":"000000000009F2FC"},
{"_id":{"$oid":"5c5faf6afc13ae75750004dd"},"numero":246,"codigoChip":"00000000F4C308FF"},
{"_id":{"$oid":"5c5faf6afc13ae75750004de"},"numero":247,"codigoChip":"00000000E28DEE67"},
{"_id":{"$oid":"5c5faf6afc13ae75750004df"},"numero":248,"codigoChip":"000000009F2014E3"},
{"_id":{"$oid":"5c5faf6afc13ae75750004e0"},"numero":249,"codigoChip":"00000000000DF7E7"},
{"_id":{"$oid":"5c5faf6afc13ae75750004e1"},"numero":250,"codigoChip":"00000000000F06FF"},
{"_id":{"$oid":"5c5faf6afc13ae75750004e2"},"numero":251,"codigoChip":"0000000004F2D8E6"},
{"_id":{"$oid":"5c5faf6afc13ae75750004e3"},"numero":252,"codigoChip":"00000000000FF88F"},
{"_id":{"$oid":"5c5faf6afc13ae75750004e4"},"numero":253,"codigoChip":"00000000000F70C0"},
{"_id":{"$oid":"5c5faf6afc13ae75750004e5"},"numero":254,"codigoChip":"00000000023B6148"},
{"_id":{"$oid":"5c5faf6afc13ae75750004e6"},"numero":255,"codigoChip":"000000000087D850"},
{"_id":{"$oid":"5c5faf6afc13ae75750004e7"},"numero":256,"codigoChip":"0000000000009F3A"},
{"_id":{"$oid":"5c5faf6afc13ae75750004e8"},"numero":257,"codigoChip":"0000000000B8EF5D"},
{"_id":{"$oid":"5c5faf6afc13ae75750004e9"},"numero":258,"codigoChip":"0000000000005F3F"},
{"_id":{"$oid":"5c5faf6afc13ae75750004ea"},"numero":259,"codigoChip":"000000000000FFF9"},
{"_id":{"$oid":"5c5faf6afc13ae75750004eb"},"numero":260,"codigoChip":"000000005D0E992A"},
{"_id":{"$oid":"5c5faf6afc13ae75750004ec"},"numero":261,"codigoChip":"00000000000024FF"},
{"_id":{"$oid":"5c5faf6afc13ae75750004ed"},"numero":262,"codigoChip":"0000000000D4B3F2"},
{"_id":{"$oid":"5c5faf6afc13ae75750004ee"},"numero":263,"codigoChip":"000000000000F889"},
{"_id":{"$oid":"5c5faf6afc13ae75750004ef"},"numero":264,"codigoChip":"000000000000DED2"},
{"_id":{"$oid":"5c5faf6afc13ae75750004f0"},"numero":265,"codigoChip":"000000000009C159"},
{"_id":{"$oid":"5c5faf6afc13ae75750004f1"},"numero":266,"codigoChip":"000000000000C2F8"},
{"_id":{"$oid":"5c5faf6afc13ae75750004f2"},"numero":267,"codigoChip":"000000000E1000C2"},
{"_id":{"$oid":"5c5faf6afc13ae75750004f3"},"numero":268,"codigoChip":"000000000AEF51F3"},
{"_id":{"$oid":"5c5faf6afc13ae75750004f4"},"numero":269,"codigoChip":"00000000000F3241"},
{"_id":{"$oid":"5c5faf6afc13ae75750004f5"},"numero":270,"codigoChip":"000000008E0F495F"},
{"_id":{"$oid":"5c5faf6afc13ae75750004f6"},"numero":271,"codigoChip":"0000000003FFF3BB"},
{"_id":{"$oid":"5c5faf6afc13ae75750004f7"},"numero":272,"codigoChip":"00000000008F4E13"},
{"_id":{"$oid":"5c5faf6afc13ae75750004f8"},"numero":273,"codigoChip":"0000000057FFE56E"},
{"_id":{"$oid":"5c5faf6afc13ae75750004f9"},"numero":274,"codigoChip":"000000000010D40E"},
{"_id":{"$oid":"5c5faf6afc13ae75750004fa"},"numero":275,"codigoChip":"0000000000059458"},
{"_id":{"$oid":"5c5faf6afc13ae75750004fb"},"numero":276,"codigoChip":"000000000000EE6F"},
{"_id":{"$oid":"5c5faf6afc13ae75750004fc"},"numero":277,"codigoChip":"00000000000CB73C"},
{"_id":{"$oid":"5c5faf6afc13ae75750004fd"},"numero":278,"codigoChip":"000000000002F82F"},
{"_id":{"$oid":"5c5faf6afc13ae75750004fe"},"numero":279,"codigoChip":"00000000005EFED0"},
{"_id":{"$oid":"5c5faf6afc13ae75750004ff"},"numero":280,"codigoChip":"0000000008D8D251"},
{"_id":{"$oid":"5c5faf6afc13ae7575000500"},"numero":281,"codigoChip":"0000000000FF810F"},
{"_id":{"$oid":"5c5faf6afc13ae7575000501"},"numero":282,"codigoChip":"000000000000EF07"},
{"_id":{"$oid":"5c5faf6afc13ae7575000502"},"numero":283,"codigoChip":"000000000000FE11"},
{"_id":{"$oid":"5c5faf6afc13ae7575000503"},"numero":284,"codigoChip":"0000000007FF480F"},
{"_id":{"$oid":"5c5faf6afc13ae7575000504"},"numero":285,"codigoChip":"0000000000007353"},
{"_id":{"$oid":"5c5faf6afc13ae7575000505"},"numero":286,"codigoChip":"0000000000003851"},
{"_id":{"$oid":"5c5faf6afc13ae7575000506"},"numero":287,"codigoChip":"00000000000C2132"},
{"_id":{"$oid":"5c5faf6afc13ae7575000507"},"numero":288,"codigoChip":"0000000092A9E306"},
{"_id":{"$oid":"5c5faf6afc13ae7575000508"},"numero":289,"codigoChip":"00000000000029F0"},
{"_id":{"$oid":"5c5faf6afc13ae7575000509"},"numero":290,"codigoChip":"0000000004D3F2FF"},
{"_id":{"$oid":"5c5faf6afc13ae757500050a"},"numero":291,"codigoChip":"000000000C267EEF"},
{"_id":{"$oid":"5c5faf6afc13ae757500050b"},"numero":292,"codigoChip":"00000000000048AE"},
{"_id":{"$oid":"5c5faf6afc13ae757500050c"},"numero":293,"codigoChip":"000000000000296F"},
{"_id":{"$oid":"5c5faf6afc13ae757500050d"},"numero":294,"codigoChip":"0000000000DEDD23"},
{"_id":{"$oid":"5c5faf6afc13ae757500050e"},"numero":295,"codigoChip":"0000000000007FF9"},
{"_id":{"$oid":"5c5faf6afc13ae757500050f"},"numero":296,"codigoChip":"000000007F4583EE"},
{"_id":{"$oid":"5c5faf6afc13ae7575000510"},"numero":297,"codigoChip":"00000000D08F1733"},
{"_id":{"$oid":"5c5faf6afc13ae7575000511"},"numero":298,"codigoChip":"0000000000D56FEF"},
{"_id":{"$oid":"5c5faf6afc13ae7575000512"},"numero":299,"codigoChip":"00000000F5ADE580"},
{"_id":{"$oid":"5c5faf6afc13ae7575000513"},"numero":300,"codigoChip":"000000000000657F"},
{"_id":{"$oid":"5c5faf6afc13ae7575000514"},"numero":301,"codigoChip":"000000000000E3F6"},
{"_id":{"$oid":"5c5faf6afc13ae7575000515"},"numero":302,"codigoChip":"00000000024FF0FE"},
{"_id":{"$oid":"5c5faf6afc13ae7575000516"},"numero":303,"codigoChip":"00000000000B5CC1"},
{"_id":{"$oid":"5c5faf6afc13ae7575000517"},"numero":304,"codigoChip":"00000000000E5EFF"},
{"_id":{"$oid":"5c5faf6afc13ae7575000518"},"numero":305,"codigoChip":"000000000000222F"},
{"_id":{"$oid":"5c5faf6afc13ae7575000519"},"numero":306,"codigoChip":"000000000000F3FF"},
{"_id":{"$oid":"5c5faf6afc13ae757500051a"},"numero":307,"codigoChip":"0000000003EFEFFE"},
{"_id":{"$oid":"5c5faf6afc13ae757500051b"},"numero":308,"codigoChip":"00000000000D1505"},
{"_id":{"$oid":"5c5faf6afc13ae757500051c"},"numero":309,"codigoChip":"000000000852FFFE"},
{"_id":{"$oid":"5c5faf6afc13ae757500051d"},"numero":310,"codigoChip":"0000000000009C1E"},
{"_id":{"$oid":"5c5faf6afc13ae757500051e"},"numero":311,"codigoChip":"000000000000FEFE"},
{"_id":{"$oid":"5c5faf6afc13ae757500051f"},"numero":312,"codigoChip":"00000000000422E6"},
{"_id":{"$oid":"5c5faf6afc13ae7575000520"},"numero":313,"codigoChip":"000000000068FE44"},
{"_id":{"$oid":"5c5faf6afc13ae7575000521"},"numero":314,"codigoChip":"0000000000FFE196"},
{"_id":{"$oid":"5c5faf6afc13ae7575000522"},"numero":315,"codigoChip":"00000000000EAF31"},
{"_id":{"$oid":"5c5faf6afc13ae7575000523"},"numero":316,"codigoChip":"00000000CFF5C85E"},
{"_id":{"$oid":"5c5faf6afc13ae7575000524"},"numero":317,"codigoChip":"000000000EF97F8A"},
{"_id":{"$oid":"5c5faf6afc13ae7575000525"},"numero":318,"codigoChip":"00000000000EFDD2"},
{"_id":{"$oid":"5c5faf6afc13ae7575000526"},"numero":319,"codigoChip":"000000000000CFBE"},
{"_id":{"$oid":"5c5faf6afc13ae7575000527"},"numero":320,"codigoChip":"000000000008F464"},
{"_id":{"$oid":"5c5faf6afc13ae7575000528"},"numero":321,"codigoChip":"000000000000FD67"},
{"_id":{"$oid":"5c5faf6afc13ae7575000529"},"numero":322,"codigoChip":"00000000062538E0"},
{"_id":{"$oid":"5c5faf6afc13ae757500052a"},"numero":323,"codigoChip":"000000000B210CF0"},
{"_id":{"$oid":"5c5faf6afc13ae757500052b"},"numero":324,"codigoChip":"0000000068FFFF72"},
{"_id":{"$oid":"5c5faf6afc13ae757500052c"},"numero":325,"codigoChip":"00000000000F9EDF"},
{"_id":{"$oid":"5c5faf6afc13ae757500052d"},"numero":326,"codigoChip":"00000000000D9F23"},
{"_id":{"$oid":"5c5faf6afc13ae757500052e"},"numero":327,"codigoChip":"00000000000BEED5"},
{"_id":{"$oid":"5c5faf6afc13ae757500052f"},"numero":328,"codigoChip":"0000000008F7F18E"},
{"_id":{"$oid":"5c5faf6afc13ae7575000530"},"numero":329,"codigoChip":"00000000780FC0B6"},
{"_id":{"$oid":"5c5faf6afc13ae7575000531"},"numero":330,"codigoChip":"00000000000EF6C1"},
{"_id":{"$oid":"5c5faf6afc13ae7575000532"},"numero":331,"codigoChip":"0000000000E58F3F"},
{"_id":{"$oid":"5c5faf6afc13ae7575000533"},"numero":332,"codigoChip":"000000000E9F5F5C"},
{"_id":{"$oid":"5c5faf6afc13ae7575000534"},"numero":333,"codigoChip":"0000000002FB0985"},
{"_id":{"$oid":"5c5faf6afc13ae7575000535"},"numero":334,"codigoChip":"0000000000080220"},
{"_id":{"$oid":"5c5faf6afc13ae7575000536"},"numero":335,"codigoChip":"00000000FDF1CAFF"},
{"_id":{"$oid":"5c5faf6afc13ae7575000537"},"numero":336,"codigoChip":"000000000F466DF8"},
{"_id":{"$oid":"5c5faf6afc13ae7575000538"},"numero":337,"codigoChip":"0000000000082EEF"},
{"_id":{"$oid":"5c5faf6afc13ae7575000539"},"numero":338,"codigoChip":"0000000000008F9F"},
{"_id":{"$oid":"5c5faf6afc13ae757500053a"},"numero":339,"codigoChip":"000000000060CE7E"},
{"_id":{"$oid":"5c5faf6afc13ae757500053b"},"numero":340,"codigoChip":"0000000000E6FDFE"},
{"_id":{"$oid":"5c5faf6afc13ae757500053c"},"numero":341,"codigoChip":"00000000007E54F9"},
{"_id":{"$oid":"5c5faf6afc13ae757500053d"},"numero":342,"codigoChip":"0000000000557FEA"},
{"_id":{"$oid":"5c5faf6afc13ae757500053e"},"numero":343,"codigoChip":"00000000322E38FF"},
{"_id":{"$oid":"5c5faf6afc13ae757500053f"},"numero":344,"codigoChip":"0000000087F5E9FE"},
{"_id":{"$oid":"5c5faf6afc13ae7575000540"},"numero":345,"codigoChip":"00000000000286E6"},
{"_id":{"$oid":"5c5faf6afc13ae7575000541"},"numero":346,"codigoChip":"00000000000FE93C"},
{"_id":{"$oid":"5c5faf6afc13ae7575000542"},"numero":347,"codigoChip":"000000000FDED298"},
{"_id":{"$oid":"5c5faf6afc13ae7575000543"},"numero":348,"codigoChip":"0000000000071EF1"},
{"_id":{"$oid":"5c5faf6afc13ae7575000544"},"numero":349,"codigoChip":"00000000D5CF3F5F"},
{"_id":{"$oid":"5c5faf6afc13ae7575000545"},"numero":350,"codigoChip":"000000000000F5E8"},
{"_id":{"$oid":"5c5faf6afc13ae7575000546"},"numero":351,"codigoChip":"0000000007EFE717"},
{"_id":{"$oid":"5c5faf6afc13ae7575000547"},"numero":352,"codigoChip":"00000000FF692209"},
{"_id":{"$oid":"5c5faf6afc13ae7575000548"},"numero":353,"codigoChip":"000000000000FBEF"},
{"_id":{"$oid":"5c5faf6afc13ae7575000549"},"numero":354,"codigoChip":"000000000000FEFE"},
{"_id":{"$oid":"5c5faf6afc13ae757500054a"},"numero":355,"codigoChip":"00000000A9123880"},
{"_id":{"$oid":"5c5faf6afc13ae757500054b"},"numero":356,"codigoChip":"000000000E5F025E"},
{"_id":{"$oid":"5c5faf6afc13ae757500054c"},"numero":357,"codigoChip":"00000000000F6E0F"},
{"_id":{"$oid":"5c5faf6afc13ae757500054d"},"numero":358,"codigoChip":"00000000000F5837"},
{"_id":{"$oid":"5c5faf6afc13ae757500054e"},"numero":359,"codigoChip":"00000000CA5D9E90"},
{"_id":{"$oid":"5c5faf6afc13ae757500054f"},"numero":360,"codigoChip":"0000000000FEE89A"},
{"_id":{"$oid":"5c5faf6afc13ae7575000550"},"numero":361,"codigoChip":"0000000000DE3E85"},
{"_id":{"$oid":"5c5faf6afc13ae7575000551"},"numero":362,"codigoChip":"0000000000FF7ED9"},
{"_id":{"$oid":"5c5faf6afc13ae7575000552"},"numero":363,"codigoChip":"00000000000220F3"},
{"_id":{"$oid":"5c5faf6afc13ae7575000553"},"numero":364,"codigoChip":"0000000024CDFE0E"},
{"_id":{"$oid":"5c5faf6afc13ae7575000554"},"numero":365,"codigoChip":"000000009EFF0128"},
{"_id":{"$oid":"5c5faf6afc13ae7575000555"},"numero":366,"codigoChip":"000000000000EFB3"},
{"_id":{"$oid":"5c5faf6afc13ae7575000556"},"numero":367,"codigoChip":"0000000000003F3F"},
{"_id":{"$oid":"5c5faf6afc13ae7575000557"},"numero":368,"codigoChip":"000000000000236F"},
{"_id":{"$oid":"5c5faf6afc13ae7575000558"},"numero":369,"codigoChip":"0000000000004FDE"},
{"_id":{"$oid":"5c5faf6afc13ae7575000559"},"numero":370,"codigoChip":"0000000000424983"},
{"_id":{"$oid":"5c5faf6afc13ae757500055a"},"numero":371,"codigoChip":"000000000FFF7EF1"},
{"_id":{"$oid":"5c5faf6afc13ae757500055b"},"numero":372,"codigoChip":"0000000000E9FC0F"},
{"_id":{"$oid":"5c5faf6afc13ae757500055c"},"numero":373,"codigoChip":"000000004F3DF2E3"},
{"_id":{"$oid":"5c5faf6afc13ae757500055d"},"numero":374,"codigoChip":"0000000000879D0D"},
{"_id":{"$oid":"5c5faf6afc13ae757500055e"},"numero":375,"codigoChip":"0000000000572424"},
{"_id":{"$oid":"5c5faf6afc13ae757500055f"},"numero":376,"codigoChip":"0000000000009849"},
{"_id":{"$oid":"5c5faf6afc13ae7575000560"},"numero":377,"codigoChip":"000000009FF071DF"},
{"_id":{"$oid":"5c5faf6afc13ae7575000561"},"numero":378,"codigoChip":"000000000F67FDE9"},
{"_id":{"$oid":"5c5faf6afc13ae7575000562"},"numero":379,"codigoChip":"000000000071FFF6"},
{"_id":{"$oid":"5c5faf6afc13ae7575000563"},"numero":380,"codigoChip":"000000000000701F"},
{"_id":{"$oid":"5c5faf6afc13ae7575000564"},"numero":381,"codigoChip":"0000000000004A23"},
{"_id":{"$oid":"5c5faf6afc13ae7575000565"},"numero":382,"codigoChip":"0000000006F36F74"},
{"_id":{"$oid":"5c5faf6afc13ae7575000566"},"numero":383,"codigoChip":"0000000059D06B2B"},
{"_id":{"$oid":"5c5faf6afc13ae7575000567"},"numero":384,"codigoChip":"00000000F30E52F2"},
{"_id":{"$oid":"5c5faf6afc13ae7575000568"},"numero":385,"codigoChip":"00000000000E7E40"},
{"_id":{"$oid":"5c5faf6afc13ae7575000569"},"numero":386,"codigoChip":"000000000E29FCFE"},
{"_id":{"$oid":"5c5faf6afc13ae757500056a"},"numero":387,"codigoChip":"000000000DFDEF12"},
{"_id":{"$oid":"5c5faf6afc13ae757500056b"},"numero":388,"codigoChip":"00000000F1F94FF7"},
{"_id":{"$oid":"5c5faf6afc13ae757500056c"},"numero":389,"codigoChip":"0000000078FC5F86"},
{"_id":{"$oid":"5c5faf6afc13ae757500056d"},"numero":390,"codigoChip":"000000000A0998E7"},
{"_id":{"$oid":"5c5faf6afc13ae757500056e"},"numero":391,"codigoChip":"000000000005E984"},
{"_id":{"$oid":"5c5faf6afc13ae757500056f"},"numero":392,"codigoChip":"00000000000AEFED"},
{"_id":{"$oid":"5c5faf6afc13ae7575000570"},"numero":393,"codigoChip":"00000000028FFFFF"},
{"_id":{"$oid":"5c5faf6afc13ae7575000571"},"numero":394,"codigoChip":"0000000008F5FAEF"},
{"_id":{"$oid":"5c5faf6afc13ae7575000572"},"numero":395,"codigoChip":"000000000000B323"},
{"_id":{"$oid":"5c5faf6afc13ae7575000573"},"numero":396,"codigoChip":"0000000047020C29"},
{"_id":{"$oid":"5c5faf6afc13ae7575000574"},"numero":397,"codigoChip":"0000000000007EE6"},
{"_id":{"$oid":"5c5faf6afc13ae7575000575"},"numero":398,"codigoChip":"00000000000404FD"},
{"_id":{"$oid":"5c5faf6afc13ae7575000576"},"numero":399,"codigoChip":"00000000FF4C6CDF"},
{"_id":{"$oid":"5c5faf6afc13ae7575000577"},"numero":400,"codigoChip":"0000000083342389"},
{"_id":{"$oid":"5c5faf6afc13ae7575000578"},"numero":401,"codigoChip":"000000000000F074"},
{"_id":{"$oid":"5c5faf6afc13ae7575000579"},"numero":402,"codigoChip":"00000000075F6F2E"},
{"_id":{"$oid":"5c5faf6afc13ae757500057a"},"numero":403,"codigoChip":"00000000DD354DF7"},
{"_id":{"$oid":"5c5faf6afc13ae757500057b"},"numero":404,"codigoChip":"00000000002E2F8F"},
{"_id":{"$oid":"5c5faf6afc13ae757500057c"},"numero":405,"codigoChip":"0000000071E5E987"},
{"_id":{"$oid":"5c5faf6afc13ae757500057d"},"numero":406,"codigoChip":"0000000000FC42E4"},
{"_id":{"$oid":"5c5faf6afc13ae757500057e"},"numero":407,"codigoChip":"0000000000009FFF"},
{"_id":{"$oid":"5c5faf6afc13ae757500057f"},"numero":408,"codigoChip":"0000000009CED3FF"},
{"_id":{"$oid":"5c5faf6afc13ae7575000580"},"numero":409,"codigoChip":"0000000007F4F891"},
{"_id":{"$oid":"5c5faf6afc13ae7575000581"},"numero":410,"codigoChip":"0000000000003F6D"},
{"_id":{"$oid":"5c5faf6afc13ae7575000582"},"numero":411,"codigoChip":"0000000000006FEE"},
{"_id":{"$oid":"5c5faf6afc13ae7575000583"},"numero":412,"codigoChip":"00000000306CFE2F"},
{"_id":{"$oid":"5c5faf6afc13ae7575000584"},"numero":413,"codigoChip":"0000000000E763C3"},
{"_id":{"$oid":"5c5faf6afc13ae7575000585"},"numero":414,"codigoChip":"000000000048961F"},
{"_id":{"$oid":"5c5faf6afc13ae7575000586"},"numero":415,"codigoChip":"0000000001BFCFF5"},
{"_id":{"$oid":"5c5faf6afc13ae7575000587"},"numero":416,"codigoChip":"000000000F7FA2EF"},
{"_id":{"$oid":"5c5faf6afc13ae7575000588"},"numero":417,"codigoChip":"0000000000002FEF"},
{"_id":{"$oid":"5c5faf6afc13ae7575000589"},"numero":418,"codigoChip":"0000000000002EF3"},
{"_id":{"$oid":"5c5faf6afc13ae757500058a"},"numero":419,"codigoChip":"00000000001E52FE"},
{"_id":{"$oid":"5c5faf6afc13ae757500058b"},"numero":420,"codigoChip":"000000000000BFEB"},
{"_id":{"$oid":"5c5faf6afc13ae757500058c"},"numero":421,"codigoChip":"00000000000087E4"},
{"_id":{"$oid":"5c5faf6afc13ae757500058d"},"numero":422,"codigoChip":"0000000007E07DD1"},
{"_id":{"$oid":"5c5faf6afc13ae757500058e"},"numero":423,"codigoChip":"000000000FF4475D"},
{"_id":{"$oid":"5c5faf6afc13ae757500058f"},"numero":424,"codigoChip":"00000000D8F276E4"},
{"_id":{"$oid":"5c5faf6afc13ae7575000590"},"numero":425,"codigoChip":"000000000726E0F7"},
{"_id":{"$oid":"5c5faf6afc13ae7575000591"},"numero":426,"codigoChip":"0000000003A5462E"},
{"_id":{"$oid":"5c5faf6afc13ae7575000592"},"numero":427,"codigoChip":"00000000F57F766F"},
{"_id":{"$oid":"5c5faf6afc13ae7575000593"},"numero":428,"codigoChip":"00000000ED3F923F"},
{"_id":{"$oid":"5c5faf6afc13ae7575000594"},"numero":429,"codigoChip":"000000005EF2F033"},
{"_id":{"$oid":"5c5faf6afc13ae7575000595"},"numero":430,"codigoChip":"0000000000132EEA"},
{"_id":{"$oid":"5c5faf6afc13ae7575000596"},"numero":431,"codigoChip":"000000004EF58157"},
{"_id":{"$oid":"5c5faf6afc13ae7575000597"},"numero":432,"codigoChip":"000000000FAA52A8"},
{"_id":{"$oid":"5c5faf6afc13ae7575000598"},"numero":433,"codigoChip":"000000000DFEFBF1"},
{"_id":{"$oid":"5c5faf6afc13ae7575000599"},"numero":434,"codigoChip":"000000000000F240"},
{"_id":{"$oid":"5c5faf6afc13ae757500059a"},"numero":435,"codigoChip":"00000000000027FF"},
{"_id":{"$oid":"5c5faf6afc13ae757500059b"},"numero":436,"codigoChip":"0000000063BDFFFD"},
{"_id":{"$oid":"5c5faf6afc13ae757500059c"},"numero":437,"codigoChip":"00000000000005F5"},
{"_id":{"$oid":"5c5faf6afc13ae757500059d"},"numero":438,"codigoChip":"0000000005F6F42E"},
{"_id":{"$oid":"5c5faf6afc13ae757500059e"},"numero":439,"codigoChip":"000000000007FD9E"},
{"_id":{"$oid":"5c5faf6afc13ae757500059f"},"numero":440,"codigoChip":"0000000000D11F7E"},
{"_id":{"$oid":"5c5faf6afc13ae75750005a0"},"numero":441,"codigoChip":"00000000000FF2FF"},
{"_id":{"$oid":"5c5faf6afc13ae75750005a1"},"numero":442,"codigoChip":"00000000000E96D2"},
{"_id":{"$oid":"5c5faf6afc13ae75750005a2"},"numero":443,"codigoChip":"00000000000567F5"},
{"_id":{"$oid":"5c5faf6afc13ae75750005a3"},"numero":444,"codigoChip":"00000000000095DF"},
{"_id":{"$oid":"5c5faf6afc13ae75750005a4"},"numero":445,"codigoChip":"00000000F47F60FF"},
{"_id":{"$oid":"5c5faf6afc13ae75750005a5"},"numero":446,"codigoChip":"00000000000035C5"},
{"_id":{"$oid":"5c5faf6afc13ae75750005a6"},"numero":447,"codigoChip":"00000000000774E7"},
{"_id":{"$oid":"5c5faf6afc13ae75750005a7"},"numero":448,"codigoChip":"0000000000CF8E2E"},
{"_id":{"$oid":"5c5faf6afc13ae75750005a8"},"numero":449,"codigoChip":"00000000DEFC5202"},
{"_id":{"$oid":"5c5faf6afc13ae75750005a9"},"numero":450,"codigoChip":"0000000051FFF944"},
{"_id":{"$oid":"5c5faf6afc13ae75750005aa"},"numero":451,"codigoChip":"000000007FEF35F0"},
{"_id":{"$oid":"5c5faf6afc13ae75750005ab"},"numero":452,"codigoChip":"00000000D3FFFF6F"},
{"_id":{"$oid":"5c5faf6afc13ae75750005ac"},"numero":453,"codigoChip":"000000000FAFFF56"},
{"_id":{"$oid":"5c5faf6afc13ae75750005ad"},"numero":454,"codigoChip":"0000000000048903"},
{"_id":{"$oid":"5c5faf6afc13ae75750005ae"},"numero":455,"codigoChip":"00000000026E9F5C"},
{"_id":{"$oid":"5c5faf6afc13ae75750005af"},"numero":456,"codigoChip":"000000000D202FFF"},
{"_id":{"$oid":"5c5faf6afc13ae75750005b0"},"numero":457,"codigoChip":"00000000005C2EF5"},
{"_id":{"$oid":"5c5faf6afc13ae75750005b1"},"numero":458,"codigoChip":"000000000D14FBE1"},
{"_id":{"$oid":"5c5faf6afc13ae75750005b2"},"numero":459,"codigoChip":"0000000006640FC6"},
{"_id":{"$oid":"5c5faf6afc13ae75750005b3"},"numero":460,"codigoChip":"00000000000FF7E6"},
{"_id":{"$oid":"5c5faf6afc13ae75750005b4"},"numero":461,"codigoChip":"000000000009FE22"},
{"_id":{"$oid":"5c5faf6afc13ae75750005b5"},"numero":462,"codigoChip":"0000000000000F3F"},
{"_id":{"$oid":"5c5faf6afc13ae75750005b6"},"numero":463,"codigoChip":"0000000008EF1288"},
{"_id":{"$oid":"5c5faf6afc13ae75750005b7"},"numero":464,"codigoChip":"000000000FFAF145"},
{"_id":{"$oid":"5c5faf6afc13ae75750005b8"},"numero":465,"codigoChip":"000000000000FF05"},
{"_id":{"$oid":"5c5faf6afc13ae75750005b9"},"numero":466,"codigoChip":"000000000893D540"},
{"_id":{"$oid":"5c5faf6afc13ae75750005ba"},"numero":467,"codigoChip":"000000000F87CF2F"},
{"_id":{"$oid":"5c5faf6afc13ae75750005bb"},"numero":468,"codigoChip":"0000000001CE9F64"},
{"_id":{"$oid":"5c5faf6afc13ae75750005bc"},"numero":469,"codigoChip":"00000000000F323D"},
{"_id":{"$oid":"5c5faf6afc13ae75750005bd"},"numero":470,"codigoChip":"000000000000559E"},
{"_id":{"$oid":"5c5faf6afc13ae75750005be"},"numero":471,"codigoChip":"00000000FF39CF3E"},
{"_id":{"$oid":"5c5faf6afc13ae75750005bf"},"numero":472,"codigoChip":"0000000000498F03"},
{"_id":{"$oid":"5c5faf6afc13ae75750005c0"},"numero":473,"codigoChip":"000000000000C6F9"},
{"_id":{"$oid":"5c5faf6afc13ae75750005c1"},"numero":474,"codigoChip":"0000000000590FF1"},
{"_id":{"$oid":"5c5faf6afc13ae75750005c2"},"numero":475,"codigoChip":"00000000000030FF"},
{"_id":{"$oid":"5c5faf6afc13ae75750005c3"},"numero":476,"codigoChip":"0000000000008FFF"},
{"_id":{"$oid":"5c5faf6afc13ae75750005c4"},"numero":477,"codigoChip":"000000000E3FF7F6"},
{"_id":{"$oid":"5c5faf6afc13ae75750005c5"},"numero":478,"codigoChip":"00000000000F88FD"},
{"_id":{"$oid":"5c5faf6afc13ae75750005c6"},"numero":479,"codigoChip":"00000000000EFE90"},
{"_id":{"$oid":"5c5faf6afc13ae75750005c7"},"numero":480,"codigoChip":"000000000FF4F561"},
{"_id":{"$oid":"5c5faf6afc13ae75750005c8"},"numero":481,"codigoChip":"000000002EC04FFF"},
{"_id":{"$oid":"5c5faf6afc13ae75750005c9"},"numero":482,"codigoChip":"000000000000F37D"},
{"_id":{"$oid":"5c5faf6afc13ae75750005ca"},"numero":483,"codigoChip":"000000000006ECE9"},
{"_id":{"$oid":"5c5faf6afc13ae75750005cb"},"numero":484,"codigoChip":"000000000007FF51"},
{"_id":{"$oid":"5c5faf6afc13ae75750005cc"},"numero":485,"codigoChip":"00000000DFFE5A8F"},
{"_id":{"$oid":"5c5faf6afc13ae75750005cd"},"numero":486,"codigoChip":"000000000FD8FFF2"},
{"_id":{"$oid":"5c5faf6afc13ae75750005ce"},"numero":487,"codigoChip":"0000000000FEAF9F"},
{"_id":{"$oid":"5c5faf6afc13ae75750005cf"},"numero":488,"codigoChip":"0000000000F747FD"},
{"_id":{"$oid":"5c5faf6afc13ae75750005d0"},"numero":489,"codigoChip":"000000000000FAF9"},
{"_id":{"$oid":"5c5faf6afc13ae75750005d1"},"numero":490,"codigoChip":"00000000000FFF9F"},
{"_id":{"$oid":"5c5faf6afc13ae75750005d2"},"numero":491,"codigoChip":"000000003FF1F6ED"},
{"_id":{"$oid":"5c5faf6afc13ae75750005d3"},"numero":492,"codigoChip":"000000000061FEF8"},
{"_id":{"$oid":"5c5faf6afc13ae75750005d4"},"numero":493,"codigoChip":"0000000000EB6F8E"},
{"_id":{"$oid":"5c5faf6afc13ae75750005d5"},"numero":494,"codigoChip":"00000000FED40FA9"},
{"_id":{"$oid":"5c5faf6afc13ae75750005d6"},"numero":495,"codigoChip":"00000000008FFCF2"},
{"_id":{"$oid":"5c5faf6afc13ae75750005d7"},"numero":496,"codigoChip":"00000000001FF00F"},
{"_id":{"$oid":"5c5faf6afc13ae75750005d8"},"numero":497,"codigoChip":"00000000E4E70299"},
{"_id":{"$oid":"5c5faf6afc13ae75750005d9"},"numero":498,"codigoChip":"000000000FFE9278"},
{"_id":{"$oid":"5c5faf6afc13ae75750005da"},"numero":499,"codigoChip":"00000000000D0C07"},
{"_id":{"$oid":"5c5faf6afc13ae75750005db"},"numero":500,"codigoChip":"000000000004E08F"},
{"_id":{"$oid":"5c5faf6afc13ae75750005dc"},"numero":501,"codigoChip":"000000000013DEFF"},
{"_id":{"$oid":"5c5faf6afc13ae75750005dd"},"numero":502,"codigoChip":"000000000F1FE7F6"},
{"_id":{"$oid":"5c5faf6afc13ae75750005de"},"numero":503,"codigoChip":"000000000005EFFE"},
{"_id":{"$oid":"5c5faf6afc13ae75750005df"},"numero":504,"codigoChip":"00000000000F97ED"},
{"_id":{"$oid":"5c5faf6afc13ae75750005e0"},"numero":505,"codigoChip":"00000000002ADFFF"},
{"_id":{"$oid":"5c5faf6afc13ae75750005e1"},"numero":506,"codigoChip":"000000000F695DE7"},
{"_id":{"$oid":"5c5faf6afc13ae75750005e2"},"numero":507,"codigoChip":"0000000004693F1D"},
{"_id":{"$oid":"5c5faf6afc13ae75750005e3"},"numero":508,"codigoChip":"000000000B5EF4F6"},
{"_id":{"$oid":"5c5faf6afc13ae75750005e4"},"numero":509,"codigoChip":"00000000FE6F3FF8"},
{"_id":{"$oid":"5c5faf6afc13ae75750005e5"},"numero":510,"codigoChip":"000000000001416C"},
{"_id":{"$oid":"5c5faf6afc13ae75750005e6"},"numero":511,"codigoChip":"000000000007035F"},
{"_id":{"$oid":"5c5faf6afc13ae75750005e7"},"numero":512,"codigoChip":"0000000000E2812F"},
{"_id":{"$oid":"5c5faf6afc13ae75750005e8"},"numero":513,"codigoChip":"000000001F0F2E71"},
{"_id":{"$oid":"5c5faf6afc13ae75750005e9"},"numero":514,"codigoChip":"0000000000F2FFAF"},
{"_id":{"$oid":"5c5faf6afc13ae75750005ea"},"numero":515,"codigoChip":"000000000000FFE4"},
{"_id":{"$oid":"5c5faf6afc13ae75750005eb"},"numero":516,"codigoChip":"000000005FF1896D"},
{"_id":{"$oid":"5c5faf6afc13ae75750005ec"},"numero":517,"codigoChip":"000000003277EFDC"},
{"_id":{"$oid":"5c5faf6afc13ae75750005ed"},"numero":518,"codigoChip":"000000000F083DEE"},
{"_id":{"$oid":"5c5faf6afc13ae75750005ee"},"numero":519,"codigoChip":"00000000FEC8FF2F"},
{"_id":{"$oid":"5c5faf6afc13ae75750005ef"},"numero":520,"codigoChip":"00000000DFEF9142"},
{"_id":{"$oid":"5c5faf6afc13ae75750005f0"},"numero":521,"codigoChip":"00000000001BD69E"},
{"_id":{"$oid":"5c5faf6afc13ae75750005f1"},"numero":522,"codigoChip":"00000000B93EF4E1"},
{"_id":{"$oid":"5c5faf6afc13ae75750005f2"},"numero":523,"codigoChip":"00000000000EF1C2"},
{"_id":{"$oid":"5c5faf6afc13ae75750005f3"},"numero":524,"codigoChip":"00000000000BF0E8"},
{"_id":{"$oid":"5c5faf6afc13ae75750005f4"},"numero":525,"codigoChip":"00000000000057F1"},
{"_id":{"$oid":"5c5faf6afc13ae75750005f5"},"numero":526,"codigoChip":"0000000082FFDE3F"},
{"_id":{"$oid":"5c5faf6afc13ae75750005f6"},"numero":527,"codigoChip":"00000000056ECFE0"},
{"_id":{"$oid":"5c5faf6afc13ae75750005f7"},"numero":528,"codigoChip":"0000000000618FEF"},
{"_id":{"$oid":"5c5faf6afc13ae75750005f8"},"numero":529,"codigoChip":"000000007F22DFEF"},
{"_id":{"$oid":"5c5faf6afc13ae75750005f9"},"numero":530,"codigoChip":"000000002F0F6FEF"},
{"_id":{"$oid":"5c5faf6afc13ae75750005fa"},"numero":531,"codigoChip":"0000000000E5EF84"},
{"_id":{"$oid":"5c5faf6afc13ae75750005fb"},"numero":532,"codigoChip":"0000000000036F70"},
{"_id":{"$oid":"5c5faf6afc13ae75750005fc"},"numero":533,"codigoChip":"0000000007FEF6BF"},
{"_id":{"$oid":"5c5faf6afc13ae75750005fd"},"numero":534,"codigoChip":"00000000000D2901"},
{"_id":{"$oid":"5c5faf6afc13ae75750005fe"},"numero":535,"codigoChip":"0000000000CE66AE"},
{"_id":{"$oid":"5c5faf6afc13ae75750005ff"},"numero":536,"codigoChip":"0000000000F032EE"},
{"_id":{"$oid":"5c5faf6afc13ae7575000600"},"numero":537,"codigoChip":"000000000D69623E"},
{"_id":{"$oid":"5c5faf6afc13ae7575000601"},"numero":538,"codigoChip":"000000000FEFE7FF"},
{"_id":{"$oid":"5c5faf6afc13ae7575000602"},"numero":539,"codigoChip":"000000000000F3FE"},
{"_id":{"$oid":"5c5faf6afc13ae7575000603"},"numero":540,"codigoChip":"0000000000FF2F5B"},
{"_id":{"$oid":"5c5faf6afc13ae7575000604"},"numero":541,"codigoChip":"000000000000E44F"},
{"_id":{"$oid":"5c5faf6afc13ae7575000605"},"numero":542,"codigoChip":"00000000000E2FED"},
{"_id":{"$oid":"5c5faf6afc13ae7575000606"},"numero":543,"codigoChip":"0000000000063863"},
{"_id":{"$oid":"5c5faf6afc13ae7575000607"},"numero":544,"codigoChip":"0000000000028EEF"},
{"_id":{"$oid":"5c5faf6afc13ae7575000608"},"numero":545,"codigoChip":"000000000DD11E98"},
{"_id":{"$oid":"5c5faf6afc13ae7575000609"},"numero":546,"codigoChip":"00000000E304E3FE"},
{"_id":{"$oid":"5c5faf6afc13ae757500060a"},"numero":547,"codigoChip":"0000000046180143"},
{"_id":{"$oid":"5c5faf6afc13ae757500060b"},"numero":548,"codigoChip":"0000000000E9412F"},
{"_id":{"$oid":"5c5faf6afc13ae757500060c"},"numero":549,"codigoChip":"000000000000290F"},
{"_id":{"$oid":"5c5faf6afc13ae757500060d"},"numero":550,"codigoChip":"000000000000E42F"},
{"_id":{"$oid":"5c5faf6afc13ae757500060e"},"numero":551,"codigoChip":"0000000000EE4E7F"},
{"_id":{"$oid":"5c5faf6afc13ae757500060f"},"numero":552,"codigoChip":"000000000FFDD9FE"},
{"_id":{"$oid":"5c5faf6afc13ae7575000610"},"numero":553,"codigoChip":"0000000000FF048F"},
{"_id":{"$oid":"5c5faf6afc13ae7575000611"},"numero":554,"codigoChip":"000000000D0EF4E7"},
{"_id":{"$oid":"5c5faf6afc13ae7575000612"},"numero":555,"codigoChip":"00000000FD3DF47F"},
{"_id":{"$oid":"5c5faf6afc13ae7575000613"},"numero":556,"codigoChip":"000000000000F713"},
{"_id":{"$oid":"5c5faf6afc13ae7575000614"},"numero":557,"codigoChip":"00000000000EEFF3"},
{"_id":{"$oid":"5c5faf6afc13ae7575000615"},"numero":558,"codigoChip":"000000000000FF03"},
{"_id":{"$oid":"5c5faf6afc13ae7575000616"},"numero":559,"codigoChip":"00000000F0FD3B3D"},
{"_id":{"$oid":"5c5faf6afc13ae7575000617"},"numero":560,"codigoChip":"00000000005826FF"},
{"_id":{"$oid":"5c5faf6afc13ae7575000618"},"numero":561,"codigoChip":"000000006FFFFFE4"},
{"_id":{"$oid":"5c5faf6afc13ae7575000619"},"numero":562,"codigoChip":"000000000078D9EF"},
{"_id":{"$oid":"5c5faf6afc13ae757500061a"},"numero":563,"codigoChip":"000000001F81FE9F"},
{"_id":{"$oid":"5c5faf6afc13ae757500061b"},"numero":564,"codigoChip":"0000000000098F06"},
{"_id":{"$oid":"5c5faf6afc13ae757500061c"},"numero":565,"codigoChip":"0000000000004435"},
{"_id":{"$oid":"5c5faf6afc13ae757500061d"},"numero":566,"codigoChip":"0000000000004F5F"},
{"_id":{"$oid":"5c5faf6afc13ae757500061e"},"numero":567,"codigoChip":"0000000099FDF4F4"},
{"_id":{"$oid":"5c5faf6afc13ae757500061f"},"numero":568,"codigoChip":"00000000000CF3EF"},
{"_id":{"$oid":"5c5faf6afc13ae7575000620"},"numero":569,"codigoChip":"0000000000006EFF"},
{"_id":{"$oid":"5c5faf6afc13ae7575000621"},"numero":570,"codigoChip":"000000000F9E10FF"},
{"_id":{"$oid":"5c5faf6afc13ae7575000622"},"numero":571,"codigoChip":"00000000000DFDF0"},
{"_id":{"$oid":"5c5faf6afc13ae7575000623"},"numero":572,"codigoChip":"0000000000FDB394"},
{"_id":{"$oid":"5c5faf6afc13ae7575000624"},"numero":573,"codigoChip":"000000000EE85FF0"},
{"_id":{"$oid":"5c5faf6afc13ae7575000625"},"numero":574,"codigoChip":"0000000008ED9FD3"},
{"_id":{"$oid":"5c5faf6afc13ae7575000626"},"numero":575,"codigoChip":"000000000EFFD9AE"},
{"_id":{"$oid":"5c5faf6afc13ae7575000627"},"numero":576,"codigoChip":"0000000000050EDD"},
{"_id":{"$oid":"5c5faf6afc13ae7575000628"},"numero":577,"codigoChip":"00000000000FEF2E"},
{"_id":{"$oid":"5c5faf6afc13ae7575000629"},"numero":578,"codigoChip":"0000000004D177E9"},
{"_id":{"$oid":"5c5faf6afc13ae757500062a"},"numero":579,"codigoChip":"000000000000F6E1"},
{"_id":{"$oid":"5c5faf6afc13ae757500062b"},"numero":580,"codigoChip":"0000000007F990FF"},
{"_id":{"$oid":"5c5faf6afc13ae757500062c"},"numero":581,"codigoChip":"000000000000765E"},
{"_id":{"$oid":"5c5faf6afc13ae757500062d"},"numero":582,"codigoChip":"0000000063F8ECA1"},
{"_id":{"$oid":"5c5faf6afc13ae757500062e"},"numero":583,"codigoChip":"00000000005F5CC2"},
{"_id":{"$oid":"5c5faf6afc13ae757500062f"},"numero":584,"codigoChip":"000000007B26EF8E"},
{"_id":{"$oid":"5c5faf6afc13ae7575000630"},"numero":585,"codigoChip":"00000000008038F7"},
{"_id":{"$oid":"5c5faf6afc13ae7575000631"},"numero":586,"codigoChip":"000000000000F92F"},
{"_id":{"$oid":"5c5faf6afc13ae7575000632"},"numero":587,"codigoChip":"0000000000F4FAFD"},
{"_id":{"$oid":"5c5faf6afc13ae7575000633"},"numero":588,"codigoChip":"0000000000013D4E"},
{"_id":{"$oid":"5c5faf6afc13ae7575000634"},"numero":589,"codigoChip":"000000000000F7D6"},
{"_id":{"$oid":"5c5faf6afc13ae7575000635"},"numero":590,"codigoChip":"00000000000075EB"},
{"_id":{"$oid":"5c5faf6afc13ae7575000636"},"numero":591,"codigoChip":"000000000000F2E2"},
{"_id":{"$oid":"5c5faf6afc13ae7575000637"},"numero":592,"codigoChip":"000000000000F31E"},
{"_id":{"$oid":"5c5faf6afc13ae7575000638"},"numero":593,"codigoChip":"0000000000EF3F07"},
{"_id":{"$oid":"5c5faf6afc13ae7575000639"},"numero":594,"codigoChip":"000000000004983D"},
{"_id":{"$oid":"5c5faf6afc13ae757500063a"},"numero":595,"codigoChip":"00000000000041FD"},
{"_id":{"$oid":"5c5faf6afc13ae757500063b"},"numero":596,"codigoChip":"00000000000060F4"},
{"_id":{"$oid":"5c5faf6afc13ae757500063c"},"numero":597,"codigoChip":"0000000045E3F5C2"},
{"_id":{"$oid":"5c5faf6afc13ae757500063d"},"numero":598,"codigoChip":"000000000000FF52"},
{"_id":{"$oid":"5c5faf6afc13ae757500063e"},"numero":599,"codigoChip":"0000000007099FEF"},
{"_id":{"$oid":"5c5faf6afc13ae757500063f"},"numero":600,"codigoChip":"00000000358F172F"},
{"_id":{"$oid":"5c5faf6afc13ae7575000640"},"numero":601,"codigoChip":"0000000000003EF1"},
{"_id":{"$oid":"5c5faf6afc13ae7575000641"},"numero":602,"codigoChip":"000000000000E0E9"},
{"_id":{"$oid":"5c5faf6afc13ae7575000642"},"numero":603,"codigoChip":"000000000EFEC5CF"},
{"_id":{"$oid":"5c5faf6afc13ae7575000643"},"numero":604,"codigoChip":"00000000000EFFDF"},
{"_id":{"$oid":"5c5faf6afc13ae7575000644"},"numero":605,"codigoChip":"000000000C5F8835"},
{"_id":{"$oid":"5c5faf6afc13ae7575000645"},"numero":606,"codigoChip":"00000000000F19E6"},
{"_id":{"$oid":"5c5faf6afc13ae7575000646"},"numero":607,"codigoChip":"00000000000F3FFE"},
{"_id":{"$oid":"5c5faf6afc13ae7575000647"},"numero":608,"codigoChip":"00000000000CE4FE"},
{"_id":{"$oid":"5c5faf6afc13ae7575000648"},"numero":609,"codigoChip":"00000000000F65F9"},
{"_id":{"$oid":"5c5faf6afc13ae7575000649"},"numero":610,"codigoChip":"000000000004E340"},
{"_id":{"$oid":"5c5faf6afc13ae757500064a"},"numero":611,"codigoChip":"00000000000F89FD"},
{"_id":{"$oid":"5c5faf6afc13ae757500064b"},"numero":612,"codigoChip":"00000000042B7DA7"},
{"_id":{"$oid":"5c5faf6afc13ae757500064c"},"numero":613,"codigoChip":"00000000009F8F2F"},
{"_id":{"$oid":"5c5faf6afc13ae757500064d"},"numero":614,"codigoChip":"00000000000EFF31"},
{"_id":{"$oid":"5c5faf6afc13ae757500064e"},"numero":615,"codigoChip":"0000000000007554"},
{"_id":{"$oid":"5c5faf6afc13ae757500064f"},"numero":616,"codigoChip":"000000000007FE67"},
{"_id":{"$oid":"5c5faf6afc13ae7575000650"},"numero":617,"codigoChip":"00000000000F92AF"},
{"_id":{"$oid":"5c5faf6afc13ae7575000651"},"numero":618,"codigoChip":"00000000BF8DC5F7"},
{"_id":{"$oid":"5c5faf6afc13ae7575000652"},"numero":619,"codigoChip":"000000008E6FFFFF"},
{"_id":{"$oid":"5c5faf6afc13ae7575000653"},"numero":620,"codigoChip":"000000000FFE2FB3"},
{"_id":{"$oid":"5c5faf6afc13ae7575000654"},"numero":621,"codigoChip":"000000000BEFC519"},
{"_id":{"$oid":"5c5faf6afc13ae7575000655"},"numero":622,"codigoChip":"000000000008E371"},
{"_id":{"$oid":"5c5faf6afc13ae7575000656"},"numero":623,"codigoChip":"000000000000138B"},
{"_id":{"$oid":"5c5faf6afc13ae7575000657"},"numero":624,"codigoChip":"000000003FE06F67"},
{"_id":{"$oid":"5c5faf6afc13ae7575000658"},"numero":625,"codigoChip":"000000000000E6DD"},
{"_id":{"$oid":"5c5faf6afc13ae7575000659"},"numero":626,"codigoChip":"000000000000F0FC"},
{"_id":{"$oid":"5c5faf6afc13ae757500065a"},"numero":627,"codigoChip":"00000000006F145C"},
{"_id":{"$oid":"5c5faf6afc13ae757500065b"},"numero":628,"codigoChip":"0000000000E0F8FF"},
{"_id":{"$oid":"5c5faf6afc13ae757500065c"},"numero":629,"codigoChip":"0000000000000F7D"},
{"_id":{"$oid":"5c5faf6afc13ae757500065d"},"numero":630,"codigoChip":"000000000F4E07CE"},
{"_id":{"$oid":"5c5faf6afc13ae757500065e"},"numero":631,"codigoChip":"00000000007F1134"},
{"_id":{"$oid":"5c5faf6afc13ae757500065f"},"numero":632,"codigoChip":"000000000DC3E860"},
{"_id":{"$oid":"5c5faf6afc13ae7575000660"},"numero":633,"codigoChip":"00000000000FDDDF"},
{"_id":{"$oid":"5c5faf6afc13ae7575000661"},"numero":634,"codigoChip":"000000000009E339"},
{"_id":{"$oid":"5c5faf6afc13ae7575000662"},"numero":635,"codigoChip":"00000000004F23FF"},
{"_id":{"$oid":"5c5faf6afc13ae7575000663"},"numero":636,"codigoChip":"00000000C7F8FE00"},
{"_id":{"$oid":"5c5faf6afc13ae7575000664"},"numero":637,"codigoChip":"000000005E0D8FD8"},
{"_id":{"$oid":"5c5faf6afc13ae7575000665"},"numero":638,"codigoChip":"000000000C403EF8"},
{"_id":{"$oid":"5c5faf6afc13ae7575000666"},"numero":639,"codigoChip":"000000000000FE8E"},
{"_id":{"$oid":"5c5faf6afc13ae7575000667"},"numero":640,"codigoChip":"000000000F62E43F"},
{"_id":{"$oid":"5c5faf6afc13ae7575000668"},"numero":641,"codigoChip":"00000000000FB694"},
{"_id":{"$oid":"5c5faf6afc13ae7575000669"},"numero":642,"codigoChip":"000000007E6F9EF4"},
{"_id":{"$oid":"5c5faf6afc13ae757500066a"},"numero":643,"codigoChip":"000000000675026D"},
{"_id":{"$oid":"5c5faf6afc13ae757500066b"},"numero":644,"codigoChip":"00000000E3F4E38F"},
{"_id":{"$oid":"5c5faf6afc13ae757500066c"},"numero":645,"codigoChip":"0000000000005EF9"},
{"_id":{"$oid":"5c5faf6afc13ae757500066d"},"numero":646,"codigoChip":"000000000034EB8D"},
{"_id":{"$oid":"5c5faf6afc13ae757500066e"},"numero":647,"codigoChip":"000000000F12E411"},
{"_id":{"$oid":"5c5faf6afc13ae757500066f"},"numero":648,"codigoChip":"000000000089EE7E"},
{"_id":{"$oid":"5c5faf6afc13ae7575000670"},"numero":649,"codigoChip":"00000000A58EE354"},
{"_id":{"$oid":"5c5faf6afc13ae7575000671"},"numero":650,"codigoChip":"0000000000750F47"},
{"_id":{"$oid":"5c5faf6afc13ae7575000672"},"numero":651,"codigoChip":"000000000FFFD0E9"},
{"_id":{"$oid":"5c5faf6afc13ae7575000673"},"numero":652,"codigoChip":"0000000000EE6F2F"},
{"_id":{"$oid":"5c5faf6afc13ae7575000674"},"numero":653,"codigoChip":"00000000446FFC47"},
{"_id":{"$oid":"5c5faf6afc13ae7575000675"},"numero":654,"codigoChip":"00000000000F0F7D"},
{"_id":{"$oid":"5c5faf6afc13ae7575000676"},"numero":655,"codigoChip":"00000000CE83D553"},
{"_id":{"$oid":"5c5faf6afc13ae7575000677"},"numero":656,"codigoChip":"00000000004FEEF7"},
{"_id":{"$oid":"5c5faf6afc13ae7575000678"},"numero":657,"codigoChip":"000000000001F16E"},
{"_id":{"$oid":"5c5faf6afc13ae7575000679"},"numero":658,"codigoChip":"000000000008C3F0"},
{"_id":{"$oid":"5c5faf6afc13ae757500067a"},"numero":659,"codigoChip":"000000009F50949F"},
{"_id":{"$oid":"5c5faf6afc13ae757500067b"},"numero":660,"codigoChip":"00000000E3A1F653"},
{"_id":{"$oid":"5c5faf6afc13ae757500067c"},"numero":661,"codigoChip":"000000004F16FF11"},
{"_id":{"$oid":"5c5faf6afc13ae757500067d"},"numero":662,"codigoChip":"000000000EFFF11F"},
{"_id":{"$oid":"5c5faf6afc13ae757500067e"},"numero":663,"codigoChip":"0000000000F20355"},
{"_id":{"$oid":"5c5faf6afc13ae757500067f"},"numero":664,"codigoChip":"000000000FE6F4CD"},
{"_id":{"$oid":"5c5faf6afc13ae7575000680"},"numero":665,"codigoChip":"00000000000E1F3F"},
{"_id":{"$oid":"5c5faf6afc13ae7575000681"},"numero":666,"codigoChip":"0000000000008CFF"},
{"_id":{"$oid":"5c5faf6afc13ae7575000682"},"numero":667,"codigoChip":"0000000000E8FCFC"},
{"_id":{"$oid":"5c5faf6afc13ae7575000683"},"numero":668,"codigoChip":"000000004E3CCAFC"},
{"_id":{"$oid":"5c5faf6afc13ae7575000684"},"numero":669,"codigoChip":"0000000000EFE3CC"},
{"_id":{"$oid":"5c5faf6afc13ae7575000685"},"numero":670,"codigoChip":"00000000007F35E5"},
{"_id":{"$oid":"5c5faf6afc13ae7575000686"},"numero":671,"codigoChip":"0000000000FFF5F9"},
{"_id":{"$oid":"5c5faf6afc13ae7575000687"},"numero":672,"codigoChip":"00000000000EC6E0"},
{"_id":{"$oid":"5c5faf6afc13ae7575000688"},"numero":673,"codigoChip":"00000000008E6416"},
{"_id":{"$oid":"5c5faf6afc13ae7575000689"},"numero":674,"codigoChip":"0000000000006FEF"},
{"_id":{"$oid":"5c5faf6afc13ae757500068a"},"numero":675,"codigoChip":"000000000009CDF3"},
{"_id":{"$oid":"5c5faf6afc13ae757500068b"},"numero":676,"codigoChip":"000000000008FD9F"},
{"_id":{"$oid":"5c5faf6afc13ae757500068c"},"numero":677,"codigoChip":"00000000008BDFFF"},
{"_id":{"$oid":"5c5faf6afc13ae757500068d"},"numero":678,"codigoChip":"00000000000FFB1B"},
{"_id":{"$oid":"5c5faf6afc13ae757500068e"},"numero":679,"codigoChip":"00000000005FDE1F"},
{"_id":{"$oid":"5c5faf6afc13ae757500068f"},"numero":680,"codigoChip":"00000000095A0E21"},
{"_id":{"$oid":"5c5faf6afc13ae7575000690"},"numero":681,"codigoChip":"00000000E805EB73"},
{"_id":{"$oid":"5c5faf6afc13ae7575000691"},"numero":682,"codigoChip":"0000000000089EC2"},
{"_id":{"$oid":"5c5faf6afc13ae7575000692"},"numero":683,"codigoChip":"0000000000C0FFD5"},
{"_id":{"$oid":"5c5faf6afc13ae7575000693"},"numero":684,"codigoChip":"0000000005FF6F56"},
{"_id":{"$oid":"5c5faf6afc13ae7575000694"},"numero":685,"codigoChip":"000000000003FFA4"},
{"_id":{"$oid":"5c5faf6afc13ae7575000695"},"numero":686,"codigoChip":"00000000000E6D55"},
{"_id":{"$oid":"5c5faf6afc13ae7575000696"},"numero":687,"codigoChip":"0000000000005F06"},
{"_id":{"$oid":"5c5faf6afc13ae7575000697"},"numero":688,"codigoChip":"00000000004DF677"},
{"_id":{"$oid":"5c5faf6afc13ae7575000698"},"numero":689,"codigoChip":"00000000F0E20EE2"},
{"_id":{"$oid":"5c5faf6afc13ae7575000699"},"numero":690,"codigoChip":"00000000919E6732"},
{"_id":{"$oid":"5c5faf6afc13ae757500069a"},"numero":691,"codigoChip":"000000000000A25C"},
{"_id":{"$oid":"5c5faf6afc13ae757500069b"},"numero":692,"codigoChip":"00000000F381FF7B"},
{"_id":{"$oid":"5c5faf6afc13ae757500069c"},"numero":693,"codigoChip":"00000000F068AFC1"},
{"_id":{"$oid":"5c5faf6afc13ae757500069d"},"numero":694,"codigoChip":"0000000000064503"},
{"_id":{"$oid":"5c5faf6afc13ae757500069e"},"numero":695,"codigoChip":"00000000005F0BF9"},
{"_id":{"$oid":"5c5faf6afc13ae757500069f"},"numero":696,"codigoChip":"0000000000E3F3F3"},
{"_id":{"$oid":"5c5faf6afc13ae75750006a0"},"numero":697,"codigoChip":"0000000000008FD7"},
{"_id":{"$oid":"5c5faf6afc13ae75750006a1"},"numero":698,"codigoChip":"000000000004764F"},
{"_id":{"$oid":"5c5faf6afc13ae75750006a2"},"numero":699,"codigoChip":"000000000A8FCF06"},
{"_id":{"$oid":"5c5faf6afc13ae75750006a3"},"numero":700,"codigoChip":"000000000000DFF1"},
{"_id":{"$oid":"5c5faf6afc13ae75750006a4"},"numero":701,"codigoChip":"0000000007656FF5"},
{"_id":{"$oid":"5c5faf6afc13ae75750006a5"},"numero":702,"codigoChip":"00000000003F78F8"},
{"_id":{"$oid":"5c5faf6afc13ae75750006a6"},"numero":703,"codigoChip":"000000000BF8F0F0"},
{"_id":{"$oid":"5c5faf6afc13ae75750006a7"},"numero":704,"codigoChip":"0000000000007FF2"},
{"_id":{"$oid":"5c5faf6afc13ae75750006a8"},"numero":705,"codigoChip":"0000000000EF8089"},
{"_id":{"$oid":"5c5faf6afc13ae75750006a9"},"numero":706,"codigoChip":"0000000004F8794F"},
{"_id":{"$oid":"5c5faf6afc13ae75750006aa"},"numero":707,"codigoChip":"000000000000D23F"},
{"_id":{"$oid":"5c5faf6afc13ae75750006ab"},"numero":708,"codigoChip":"000000000F448B32"},
{"_id":{"$oid":"5c5faf6afc13ae75750006ac"},"numero":709,"codigoChip":"00000000000027F6"},
{"_id":{"$oid":"5c5faf6afc13ae75750006ad"},"numero":710,"codigoChip":"000000002FF5FD18"},
{"_id":{"$oid":"5c5faf6afc13ae75750006ae"},"numero":711,"codigoChip":"0000000000009F78"},
{"_id":{"$oid":"5c5faf6afc13ae75750006af"},"numero":712,"codigoChip":"00000000000FD0A2"},
{"_id":{"$oid":"5c5faf6afc13ae75750006b0"},"numero":713,"codigoChip":"00000000000DEF1F"},
{"_id":{"$oid":"5c5faf6afc13ae75750006b1"},"numero":714,"codigoChip":"00000000001700FE"},
{"_id":{"$oid":"5c5faf6afc13ae75750006b2"},"numero":715,"codigoChip":"00000000000CFC60"},
{"_id":{"$oid":"5c5faf6afc13ae75750006b3"},"numero":716,"codigoChip":"000000000004C14E"},
{"_id":{"$oid":"5c5faf6afc13ae75750006b4"},"numero":717,"codigoChip":"0000000000010EEC"},
{"_id":{"$oid":"5c5faf6afc13ae75750006b5"},"numero":718,"codigoChip":"00000000006DEFF7"},
{"_id":{"$oid":"5c5faf6afc13ae75750006b6"},"numero":719,"codigoChip":"000000007383E1FF"},
{"_id":{"$oid":"5c5faf6afc13ae75750006b7"},"numero":720,"codigoChip":"00000000006EFE29"},
{"_id":{"$oid":"5c5faf6afc13ae75750006b8"},"numero":721,"codigoChip":"000000000DEFE4C0"},
{"_id":{"$oid":"5c5faf6afc13ae75750006b9"},"numero":722,"codigoChip":"000000000068C9FD"},
{"_id":{"$oid":"5c5faf6bfc13ae75750006ba"},"numero":723,"codigoChip":"00000000000222F7"},
{"_id":{"$oid":"5c5faf6bfc13ae75750006bb"},"numero":724,"codigoChip":"00000000000FF3FF"},
{"_id":{"$oid":"5c5faf6bfc13ae75750006bc"},"numero":725,"codigoChip":"0000000000AFE6A7"},
{"_id":{"$oid":"5c5faf6bfc13ae75750006bd"},"numero":726,"codigoChip":"0000000000008F7F"},
{"_id":{"$oid":"5c5faf6bfc13ae75750006be"},"numero":727,"codigoChip":"00000000000F3038"},
{"_id":{"$oid":"5c5faf6bfc13ae75750006bf"},"numero":728,"codigoChip":"000000000000FF1E"},
{"_id":{"$oid":"5c5faf6bfc13ae75750006c0"},"numero":729,"codigoChip":"000000000008C5F5"},
{"_id":{"$oid":"5c5faf6bfc13ae75750006c1"},"numero":730,"codigoChip":"00000000000F6F92"},
{"_id":{"$oid":"5c5faf6bfc13ae75750006c2"},"numero":731,"codigoChip":"00000000000077B9"},
{"_id":{"$oid":"5c5faf6bfc13ae75750006c3"},"numero":732,"codigoChip":"0000000054EE1F9C"},
{"_id":{"$oid":"5c5faf6bfc13ae75750006c4"},"numero":733,"codigoChip":"000000000F68FCFF"},
{"_id":{"$oid":"5c5faf6bfc13ae75750006c5"},"numero":734,"codigoChip":"000000000F939D83"},
{"_id":{"$oid":"5c5faf6bfc13ae75750006c6"},"numero":735,"codigoChip":"000000000E2FFF71"},
{"_id":{"$oid":"5c5faf6bfc13ae75750006c7"},"numero":736,"codigoChip":"0000000000FF7466"},
{"_id":{"$oid":"5c5faf6bfc13ae75750006c8"},"numero":737,"codigoChip":"00000000F48EFF20"},
{"_id":{"$oid":"5c5faf6bfc13ae75750006c9"},"numero":738,"codigoChip":"0000000000006FF8"},
{"_id":{"$oid":"5c5faf6bfc13ae75750006ca"},"numero":739,"codigoChip":"0000000008E1204D"},
{"_id":{"$oid":"5c5faf6bfc13ae75750006cb"},"numero":740,"codigoChip":"0000000000004D10"},
{"_id":{"$oid":"5c5faf6bfc13ae75750006cc"},"numero":741,"codigoChip":"000000000000E0EF"},
{"_id":{"$oid":"5c5faf6bfc13ae75750006cd"},"numero":742,"codigoChip":"000000007222189D"},
{"_id":{"$oid":"5c5faf6bfc13ae75750006ce"},"numero":743,"codigoChip":"000000000000406F"},
{"_id":{"$oid":"5c5faf6bfc13ae75750006cf"},"numero":744,"codigoChip":"00000000E62F9D2D"},
{"_id":{"$oid":"5c5faf6bfc13ae75750006d0"},"numero":745,"codigoChip":"0000000000FE0FE6"},
{"_id":{"$oid":"5c5faf6bfc13ae75750006d1"},"numero":746,"codigoChip":"0000000000FFDDC2"},
{"_id":{"$oid":"5c5faf6bfc13ae75750006d2"},"numero":747,"codigoChip":"000000000FEF6F27"},
{"_id":{"$oid":"5c5faf6bfc13ae75750006d3"},"numero":748,"codigoChip":"0000000000001F5C"},
{"_id":{"$oid":"5c5faf6bfc13ae75750006d4"},"numero":749,"codigoChip":"0000000000084660"},
{"_id":{"$oid":"5c5faf6bfc13ae75750006d5"},"numero":750,"codigoChip":"0000000000E293F8"},
{"_id":{"$oid":"5c5faf6bfc13ae75750006d6"},"numero":751,"codigoChip":"000000000000FF62"},
{"_id":{"$oid":"5c5faf6bfc13ae75750006d7"},"numero":752,"codigoChip":"000000000EC6E3E0"},
{"_id":{"$oid":"5c5faf6bfc13ae75750006d8"},"numero":753,"codigoChip":"000000000007FF8E"},
{"_id":{"$oid":"5c5faf6bfc13ae75750006d9"},"numero":754,"codigoChip":"00000000000063EF"},
{"_id":{"$oid":"5c5faf6bfc13ae75750006da"},"numero":755,"codigoChip":"00000000008D8911"},
{"_id":{"$oid":"5c5faf6bfc13ae75750006db"},"numero":756,"codigoChip":"00000000000088F2"},
{"_id":{"$oid":"5c5faf6bfc13ae75750006dc"},"numero":757,"codigoChip":"00000000000063FE"},
{"_id":{"$oid":"5c5faf6bfc13ae75750006dd"},"numero":758,"codigoChip":"000000003C72FF36"},
{"_id":{"$oid":"5c5faf6bfc13ae75750006de"},"numero":759,"codigoChip":"00000000000189FF"},
{"_id":{"$oid":"5c5faf6bfc13ae75750006df"},"numero":760,"codigoChip":"0000000001EECF1F"},
{"_id":{"$oid":"5c5faf6bfc13ae75750006e0"},"numero":761,"codigoChip":"000000000FFF6F6E"},
{"_id":{"$oid":"5c5faf6bfc13ae75750006e1"},"numero":762,"codigoChip":"000000000BF9FF0E"},
{"_id":{"$oid":"5c5faf6bfc13ae75750006e2"},"numero":763,"codigoChip":"0000000000006F78"},
{"_id":{"$oid":"5c5faf6bfc13ae75750006e3"},"numero":764,"codigoChip":"00000000000974FF"},
{"_id":{"$oid":"5c5faf6bfc13ae75750006e4"},"numero":765,"codigoChip":"0000000000043F86"},
{"_id":{"$oid":"5c5faf6bfc13ae75750006e5"},"numero":766,"codigoChip":"0000000008E36DFE"},
{"_id":{"$oid":"5c5faf6bfc13ae75750006e6"},"numero":767,"codigoChip":"000000000000FD1E"},
{"_id":{"$oid":"5c5faf6bfc13ae75750006e7"},"numero":768,"codigoChip":"0000000045DAF1ED"},
{"_id":{"$oid":"5c5faf6bfc13ae75750006e8"},"numero":769,"codigoChip":"00000000006FF24E"},
{"_id":{"$oid":"5c5faf6bfc13ae75750006e9"},"numero":770,"codigoChip":"00000000EFF87855"},
{"_id":{"$oid":"5c5faf6bfc13ae75750006ea"},"numero":771,"codigoChip":"00000000000874F2"},
{"_id":{"$oid":"5c5faf6bfc13ae75750006eb"},"numero":772,"codigoChip":"000000003DCE7888"},
{"_id":{"$oid":"5c5faf6bfc13ae75750006ec"},"numero":773,"codigoChip":"000000000000BE27"},
{"_id":{"$oid":"5c5faf6bfc13ae75750006ed"},"numero":774,"codigoChip":"00000000E0ED8F9D"},
{"_id":{"$oid":"5c5faf6bfc13ae75750006ee"},"numero":775,"codigoChip":"00000000000DFE8F"},
{"_id":{"$oid":"5c5faf6bfc13ae75750006ef"},"numero":776,"codigoChip":"0000000000009EE7"},
{"_id":{"$oid":"5c5faf6bfc13ae75750006f0"},"numero":777,"codigoChip":"0000000000721085"},
{"_id":{"$oid":"5c5faf6bfc13ae75750006f1"},"numero":778,"codigoChip":"000000000EF1C3E5"},
{"_id":{"$oid":"5c5faf6bfc13ae75750006f2"},"numero":779,"codigoChip":"0000000000004C44"},
{"_id":{"$oid":"5c5faf6bfc13ae75750006f3"},"numero":780,"codigoChip":"000000000000FCF4"},
{"_id":{"$oid":"5c5faf6bfc13ae75750006f4"},"numero":781,"codigoChip":"000000000000EF3B"},
{"_id":{"$oid":"5c5faf6bfc13ae75750006f5"},"numero":782,"codigoChip":"000000000001EFFF"},
{"_id":{"$oid":"5c5faf6bfc13ae75750006f6"},"numero":783,"codigoChip":"0000000000097407"},
{"_id":{"$oid":"5c5faf6bfc13ae75750006f7"},"numero":784,"codigoChip":"000000000000F58C"},
{"_id":{"$oid":"5c5faf6bfc13ae75750006f8"},"numero":785,"codigoChip":"000000000000DFC0"},
{"_id":{"$oid":"5c5faf6bfc13ae75750006f9"},"numero":786,"codigoChip":"000000000004F7CE"},
{"_id":{"$oid":"5c5faf6bfc13ae75750006fa"},"numero":787,"codigoChip":"000000000003986F"},
{"_id":{"$oid":"5c5faf6bfc13ae75750006fb"},"numero":788,"codigoChip":"0000000000F06EE4"},
{"_id":{"$oid":"5c5faf6bfc13ae75750006fc"},"numero":789,"codigoChip":"00000000860FF1F5"},
{"_id":{"$oid":"5c5faf6bfc13ae75750006fd"},"numero":790,"codigoChip":"0000000000008F2F"},
{"_id":{"$oid":"5c5faf6bfc13ae75750006fe"},"numero":791,"codigoChip":"000000000000FFD6"},
{"_id":{"$oid":"5c5faf6bfc13ae75750006ff"},"numero":792,"codigoChip":"0000000000D1F2F1"},
{"_id":{"$oid":"5c5faf6bfc13ae7575000700"},"numero":793,"codigoChip":"0000000000613FFF"},
{"_id":{"$oid":"5c5faf6bfc13ae7575000701"},"numero":794,"codigoChip":"00000000005EF6FF"},
{"_id":{"$oid":"5c5faf6bfc13ae7575000702"},"numero":795,"codigoChip":"0000000000C9D13F"},
{"_id":{"$oid":"5c5faf6bfc13ae7575000703"},"numero":796,"codigoChip":"000000000D0F193E"},
{"_id":{"$oid":"5c5faf6bfc13ae7575000704"},"numero":797,"codigoChip":"00000000000FE636"},
{"_id":{"$oid":"5c5faf6bfc13ae7575000705"},"numero":798,"codigoChip":"0000000000FF8C54"},
{"_id":{"$oid":"5c5faf6bfc13ae7575000706"},"numero":799,"codigoChip":"00000000000E9C2E"},
{"_id":{"$oid":"5c5faf6bfc13ae7575000707"},"numero":800,"codigoChip":"00000000009E9DFA"},
{"_id":{"$oid":"5c5faf6bfc13ae7575000708"},"numero":801,"codigoChip":"000000000C53F482"},
{"_id":{"$oid":"5c5faf6bfc13ae7575000709"},"numero":802,"codigoChip":"000000000000D208"},
{"_id":{"$oid":"5c5faf6bfc13ae757500070a"},"numero":803,"codigoChip":"0000000000005F4C"},
{"_id":{"$oid":"5c5faf6bfc13ae757500070b"},"numero":804,"codigoChip":"00000000036311FF"},
{"_id":{"$oid":"5c5faf6bfc13ae757500070c"},"numero":805,"codigoChip":"0000000002415E5F"},
{"_id":{"$oid":"5c5faf6bfc13ae757500070d"},"numero":806,"codigoChip":"00000000000DA27F"},
{"_id":{"$oid":"5c5faf6bfc13ae757500070e"},"numero":807,"codigoChip":"000000000056AE80"},
{"_id":{"$oid":"5c5faf6bfc13ae757500070f"},"numero":808,"codigoChip":"00000000AF3434FE"},
{"_id":{"$oid":"5c5faf6bfc13ae7575000710"},"numero":809,"codigoChip":"0000000001DD19EE"},
{"_id":{"$oid":"5c5faf6bfc13ae7575000711"},"numero":810,"codigoChip":"0000000001F98FD0"},
{"_id":{"$oid":"5c5faf6bfc13ae7575000712"},"numero":811,"codigoChip":"0000000000001D73"},
{"_id":{"$oid":"5c5faf6bfc13ae7575000713"},"numero":812,"codigoChip":"0000000000006657"},
{"_id":{"$oid":"5c5faf6bfc13ae7575000714"},"numero":813,"codigoChip":"0000000007EEEEF0"},
{"_id":{"$oid":"5c5faf6bfc13ae7575000715"},"numero":814,"codigoChip":"0000000009F55FF5"},
{"_id":{"$oid":"5c5faf6bfc13ae7575000716"},"numero":815,"codigoChip":"00000000035F6F50"},
{"_id":{"$oid":"5c5faf6bfc13ae7575000717"},"numero":816,"codigoChip":"0000000000EAE8F7"},
{"_id":{"$oid":"5c5faf6bfc13ae7575000718"},"numero":817,"codigoChip":"0000000000002025"},
{"_id":{"$oid":"5c5faf6bfc13ae7575000719"},"numero":818,"codigoChip":"0000000000001B7F"},
{"_id":{"$oid":"5c5faf6bfc13ae757500071a"},"numero":819,"codigoChip":"00000000FBFFDE2F"},
{"_id":{"$oid":"5c5faf6bfc13ae757500071b"},"numero":820,"codigoChip":"000000000003E264"},
{"_id":{"$oid":"5c5faf6bfc13ae757500071c"},"numero":821,"codigoChip":"0000000000009EA7"},
{"_id":{"$oid":"5c5faf6bfc13ae757500071d"},"numero":822,"codigoChip":"000000000000C9F5"},
{"_id":{"$oid":"5c5faf6bfc13ae757500071e"},"numero":823,"codigoChip":"0000000000007442"},
{"_id":{"$oid":"5c5faf6bfc13ae757500071f"},"numero":824,"codigoChip":"0000000000F6F9DF"},
{"_id":{"$oid":"5c5faf6bfc13ae7575000720"},"numero":825,"codigoChip":"0000000000007EF5"},
{"_id":{"$oid":"5c5faf6bfc13ae7575000721"},"numero":826,"codigoChip":"000000000DD96DF8"},
{"_id":{"$oid":"5c5faf6bfc13ae7575000722"},"numero":827,"codigoChip":"0000000000070E58"},
{"_id":{"$oid":"5c5faf6bfc13ae7575000723"},"numero":828,"codigoChip":"00000000000171FF"},
{"_id":{"$oid":"5c5faf6bfc13ae7575000724"},"numero":829,"codigoChip":"0000000000FB2FF1"},
{"_id":{"$oid":"5c5faf6bfc13ae7575000725"},"numero":830,"codigoChip":"0000000000066D14"},
{"_id":{"$oid":"5c5faf6bfc13ae7575000726"},"numero":831,"codigoChip":"0000000004F2C0F4"},
{"_id":{"$oid":"5c5faf6bfc13ae7575000727"},"numero":832,"codigoChip":"000000000000EEE9"},
{"_id":{"$oid":"5c5faf6bfc13ae7575000728"},"numero":833,"codigoChip":"0000000000001518"},
{"_id":{"$oid":"5c5faf6bfc13ae7575000729"},"numero":834,"codigoChip":"0000000024F8E72D"},
{"_id":{"$oid":"5c5faf6bfc13ae757500072a"},"numero":835,"codigoChip":"00000000FBF6DFED"},
{"_id":{"$oid":"5c5faf6bfc13ae757500072b"},"numero":836,"codigoChip":"0000000000F6DEC8"},
{"_id":{"$oid":"5c5faf6bfc13ae757500072c"},"numero":837,"codigoChip":"000000000000FFE0"},
{"_id":{"$oid":"5c5faf6bfc13ae757500072d"},"numero":838,"codigoChip":"0000000004DFF9EF"},
{"_id":{"$oid":"5c5faf6bfc13ae757500072e"},"numero":839,"codigoChip":"000000009FF9FDF0"},
{"_id":{"$oid":"5c5faf6bfc13ae757500072f"},"numero":840,"codigoChip":"000000000010DEF0"},
{"_id":{"$oid":"5c5faf6bfc13ae7575000730"},"numero":841,"codigoChip":"000000000C0F3EE7"},
{"_id":{"$oid":"5c5faf6bfc13ae7575000731"},"numero":842,"codigoChip":"00000000000FF0D4"},
{"_id":{"$oid":"5c5faf6bfc13ae7575000732"},"numero":843,"codigoChip":"00000000001FA8FF"},
{"_id":{"$oid":"5c5faf6bfc13ae7575000733"},"numero":844,"codigoChip":"00000000835FFCD1"},
{"_id":{"$oid":"5c5faf6bfc13ae7575000734"},"numero":845,"codigoChip":"0000000003D2C9FF"},
{"_id":{"$oid":"5c5faf6bfc13ae7575000735"},"numero":846,"codigoChip":"0000000000003FC8"},
{"_id":{"$oid":"5c5faf6bfc13ae7575000736"},"numero":847,"codigoChip":"00000000F8FD27F5"},
{"_id":{"$oid":"5c5faf6bfc13ae7575000737"},"numero":848,"codigoChip":"0000000000FFFF6E"},
{"_id":{"$oid":"5c5faf6bfc13ae7575000738"},"numero":849,"codigoChip":"0000000096F04FDC"},
{"_id":{"$oid":"5c5faf6bfc13ae7575000739"},"numero":850,"codigoChip":"000000000000E28F"},
{"_id":{"$oid":"5c5faf6bfc13ae757500073a"},"numero":851,"codigoChip":"00000000FE6FCF6E"},
{"_id":{"$oid":"5c5faf6bfc13ae757500073b"},"numero":852,"codigoChip":"0000000000E6FE89"},
{"_id":{"$oid":"5c5faf6bfc13ae757500073c"},"numero":853,"codigoChip":"0000000000FFF2FD"},
{"_id":{"$oid":"5c5faf6bfc13ae757500073d"},"numero":854,"codigoChip":"000000001FC4FB25"},
{"_id":{"$oid":"5c5faf6bfc13ae757500073e"},"numero":855,"codigoChip":"000000007F245636"},
{"_id":{"$oid":"5c5faf6bfc13ae757500073f"},"numero":856,"codigoChip":"00000000FB5F2FD8"},
{"_id":{"$oid":"5c5faf6bfc13ae7575000740"},"numero":857,"codigoChip":"0000000000004278"},
{"_id":{"$oid":"5c5faf6bfc13ae7575000741"},"numero":858,"codigoChip":"000000000FF39EF2"},
{"_id":{"$oid":"5c5faf6bfc13ae7575000742"},"numero":859,"codigoChip":"000000000004FF7D"},
{"_id":{"$oid":"5c5faf6bfc13ae7575000743"},"numero":860,"codigoChip":"000000000383BFFF"},
{"_id":{"$oid":"5c5faf6bfc13ae7575000744"},"numero":861,"codigoChip":"0000000000FFE19F"},
{"_id":{"$oid":"5c5faf6bfc13ae7575000745"},"numero":862,"codigoChip":"00000000007003E4"},
{"_id":{"$oid":"5c5faf6bfc13ae7575000746"},"numero":863,"codigoChip":"00000000000F4F2F"},
{"_id":{"$oid":"5c5faf6bfc13ae7575000747"},"numero":864,"codigoChip":"000000000000070E"},
{"_id":{"$oid":"5c5faf6bfc13ae7575000748"},"numero":865,"codigoChip":"00000000006F956E"},
{"_id":{"$oid":"5c5faf6bfc13ae7575000749"},"numero":866,"codigoChip":"000000000FF4BF26"},
{"_id":{"$oid":"5c5faf6bfc13ae757500074a"},"numero":867,"codigoChip":"000000006590EE8D"},
{"_id":{"$oid":"5c5faf6bfc13ae757500074b"},"numero":868,"codigoChip":"00000000FB864F38"},
{"_id":{"$oid":"5c5faf6bfc13ae757500074c"},"numero":869,"codigoChip":"0000000008E4F3EF"},
{"_id":{"$oid":"5c5faf6bfc13ae757500074d"},"numero":870,"codigoChip":"00000000FE4877F0"},
{"_id":{"$oid":"5c5faf6bfc13ae757500074e"},"numero":871,"codigoChip":"000000000314FD0F"},
{"_id":{"$oid":"5c5faf6bfc13ae757500074f"},"numero":872,"codigoChip":"0000000000F65E63"},
{"_id":{"$oid":"5c5faf6bfc13ae7575000750"},"numero":873,"codigoChip":"0000000000031FFE"},
{"_id":{"$oid":"5c5faf6bfc13ae7575000751"},"numero":874,"codigoChip":"00000000F39EF2EF"},
{"_id":{"$oid":"5c5faf6bfc13ae7575000752"},"numero":875,"codigoChip":"000000000008FDAF"},
{"_id":{"$oid":"5c5faf6bfc13ae7575000753"},"numero":876,"codigoChip":"0000000000004D2D"},
{"_id":{"$oid":"5c5faf6bfc13ae7575000754"},"numero":877,"codigoChip":"0000000000AF54CF"},
{"_id":{"$oid":"5c5faf6bfc13ae7575000755"},"numero":878,"codigoChip":"000000000F5F1F5D"},
{"_id":{"$oid":"5c5faf6bfc13ae7575000756"},"numero":879,"codigoChip":"000000000000FE82"},
{"_id":{"$oid":"5c5faf6bfc13ae7575000757"},"numero":880,"codigoChip":"00000000005DE4DF"},
{"_id":{"$oid":"5c5faf6bfc13ae7575000758"},"numero":881,"codigoChip":"0000000042D9DDE2"},
{"_id":{"$oid":"5c5faf6bfc13ae7575000759"},"numero":882,"codigoChip":"00000000000F799F"},
{"_id":{"$oid":"5c5faf6bfc13ae757500075a"},"numero":883,"codigoChip":"000000004E3DDF80"},
{"_id":{"$oid":"5c5faf6bfc13ae757500075b"},"numero":884,"codigoChip":"00000000AB26FD8D"},
{"_id":{"$oid":"5c5faf6bfc13ae757500075c"},"numero":885,"codigoChip":"000000000F58EE1E"},
{"_id":{"$oid":"5c5faf6bfc13ae757500075d"},"numero":886,"codigoChip":"0000000000320FAF"},
{"_id":{"$oid":"5c5faf6bfc13ae757500075e"},"numero":887,"codigoChip":"000000000096D1F1"},
{"_id":{"$oid":"5c5faf6bfc13ae757500075f"},"numero":888,"codigoChip":"000000000FFE2FF4"},
{"_id":{"$oid":"5c5faf6bfc13ae7575000760"},"numero":889,"codigoChip":"000000000DF74554"},
{"_id":{"$oid":"5c5faf6bfc13ae7575000761"},"numero":890,"codigoChip":"0000000000F4E270"},
{"_id":{"$oid":"5c5faf6bfc13ae7575000762"},"numero":891,"codigoChip":"000000000000903F"},
{"_id":{"$oid":"5c5faf6bfc13ae7575000763"},"numero":892,"codigoChip":"000000000FEF8EFF"},
{"_id":{"$oid":"5c5faf6bfc13ae7575000764"},"numero":893,"codigoChip":"00000000AB6FECFF"},
{"_id":{"$oid":"5c5faf6bfc13ae7575000765"},"numero":894,"codigoChip":"00000000000CE93F"},
{"_id":{"$oid":"5c5faf6bfc13ae7575000766"},"numero":895,"codigoChip":"000000000F94F4F9"},
{"_id":{"$oid":"5c5faf6bfc13ae7575000767"},"numero":896,"codigoChip":"000000000012E469"},
{"_id":{"$oid":"5c5faf6bfc13ae7575000768"},"numero":897,"codigoChip":"000000007F7731E6"},
{"_id":{"$oid":"5c5faf6bfc13ae7575000769"},"numero":898,"codigoChip":"00000000052DEF8F"},
{"_id":{"$oid":"5c5faf6bfc13ae757500076a"},"numero":899,"codigoChip":"000000000002D131"},
{"_id":{"$oid":"5c5faf6bfc13ae757500076b"},"numero":900,"codigoChip":"0000000000070E16"},
{"_id":{"$oid":"5c5faf6bfc13ae757500076c"},"numero":901,"codigoChip":"00000000002695FF"},
{"_id":{"$oid":"5c5faf6bfc13ae757500076d"},"numero":902,"codigoChip":"0000000001F838F1"},
{"_id":{"$oid":"5c5faf6bfc13ae757500076e"},"numero":903,"codigoChip":"00000000000075F4"},
{"_id":{"$oid":"5c5faf6bfc13ae757500076f"},"numero":904,"codigoChip":"00000000008F4E66"},
{"_id":{"$oid":"5c5faf6bfc13ae7575000770"},"numero":905,"codigoChip":"00000000000098F8"},
{"_id":{"$oid":"5c5faf6bfc13ae7575000771"},"numero":906,"codigoChip":"00000000009F5B70"},
{"_id":{"$oid":"5c5faf6bfc13ae7575000772"},"numero":907,"codigoChip":"000000000C2E555A"},
{"_id":{"$oid":"5c5faf6bfc13ae7575000773"},"numero":908,"codigoChip":"00000000003E6F94"},
{"_id":{"$oid":"5c5faf6bfc13ae7575000774"},"numero":909,"codigoChip":"0000000008BF71D3"},
{"_id":{"$oid":"5c5faf6bfc13ae7575000775"},"numero":910,"codigoChip":"00000000E6F788D2"},
{"_id":{"$oid":"5c5faf6bfc13ae7575000776"},"numero":911,"codigoChip":"0000000000013F2F"},
{"_id":{"$oid":"5c5faf6bfc13ae7575000777"},"numero":912,"codigoChip":"000000000005F362"},
{"_id":{"$oid":"5c5faf6bfc13ae7575000778"},"numero":913,"codigoChip":"0000000004FFEF76"},
{"_id":{"$oid":"5c5faf6bfc13ae7575000779"},"numero":914,"codigoChip":"0000000000F390E5"},
{"_id":{"$oid":"5c5faf6bfc13ae757500077a"},"numero":915,"codigoChip":"000000000E1DFE17"},
{"_id":{"$oid":"5c5faf6bfc13ae757500077b"},"numero":916,"codigoChip":"000000000000F5F7"},
{"_id":{"$oid":"5c5faf6bfc13ae757500077c"},"numero":917,"codigoChip":"000000007C503FDF"},
{"_id":{"$oid":"5c5faf6bfc13ae757500077d"},"numero":918,"codigoChip":"000000000005F5FC"},
{"_id":{"$oid":"5c5faf6bfc13ae757500077e"},"numero":919,"codigoChip":"0000000000EE731F"},
{"_id":{"$oid":"5c5faf6bfc13ae757500077f"},"numero":920,"codigoChip":"00000000354F4195"},
{"_id":{"$oid":"5c5faf6bfc13ae7575000780"},"numero":921,"codigoChip":"00000000005156FE"},
{"_id":{"$oid":"5c5faf6bfc13ae7575000781"},"numero":922,"codigoChip":"0000000000008336"},
{"_id":{"$oid":"5c5faf6bfc13ae7575000782"},"numero":923,"codigoChip":"0000000000AF49EC"},
{"_id":{"$oid":"5c5faf6bfc13ae7575000783"},"numero":924,"codigoChip":"0000000000F8F6FF"},
{"_id":{"$oid":"5c5faf6bfc13ae7575000784"},"numero":925,"codigoChip":"0000000000008258"},
{"_id":{"$oid":"5c5faf6bfc13ae7575000785"},"numero":926,"codigoChip":"00000000000054E9"},
{"_id":{"$oid":"5c5faf6bfc13ae7575000786"},"numero":927,"codigoChip":"0000000000F6F4F8"},
{"_id":{"$oid":"5c5faf6bfc13ae7575000787"},"numero":928,"codigoChip":"000000000C9F816F"},
{"_id":{"$oid":"5c5faf6bfc13ae7575000788"},"numero":929,"codigoChip":"00000000FF5F15F0"},
{"_id":{"$oid":"5c5faf6bfc13ae7575000789"},"numero":930,"codigoChip":"0000000000030611"},
{"_id":{"$oid":"5c5faf6bfc13ae757500078a"},"numero":931,"codigoChip":"00000000000FF9C2"},
{"_id":{"$oid":"5c5faf6bfc13ae757500078b"},"numero":932,"codigoChip":"000000000005F842"},
{"_id":{"$oid":"5c5faf6bfc13ae757500078c"},"numero":933,"codigoChip":"00000000000EFDFF"},
{"_id":{"$oid":"5c5faf6bfc13ae757500078d"},"numero":934,"codigoChip":"00000000000AF3F1"},
{"_id":{"$oid":"5c5faf6bfc13ae757500078e"},"numero":935,"codigoChip":"00000000E4FF3DCE"},
{"_id":{"$oid":"5c5faf6bfc13ae757500078f"},"numero":936,"codigoChip":"000000000000BA8F"},
{"_id":{"$oid":"5c5faf6bfc13ae7575000790"},"numero":937,"codigoChip":"0000000007EFFCDB"},
{"_id":{"$oid":"5c5faf6bfc13ae7575000791"},"numero":938,"codigoChip":"0000000002FCF5FE"},
{"_id":{"$oid":"5c5faf6bfc13ae7575000792"},"numero":939,"codigoChip":"0000000000DFFF0E"},
{"_id":{"$oid":"5c5faf6bfc13ae7575000793"},"numero":940,"codigoChip":"00000000E59E5DEF"},
{"_id":{"$oid":"5c5faf6bfc13ae7575000794"},"numero":941,"codigoChip":"000000000000CE69"},
{"_id":{"$oid":"5c5faf6bfc13ae7575000795"},"numero":942,"codigoChip":"000000000082FEDF"},
{"_id":{"$oid":"5c5faf6bfc13ae7575000796"},"numero":943,"codigoChip":"0000000000078F74"},
{"_id":{"$oid":"5c5faf6bfc13ae7575000797"},"numero":944,"codigoChip":"0000000000002F9F"},
{"_id":{"$oid":"5c5faf6bfc13ae7575000798"},"numero":945,"codigoChip":"0000000000004984"},
{"_id":{"$oid":"5c5faf6bfc13ae7575000799"},"numero":946,"codigoChip":"000000000000EFF2"},
{"_id":{"$oid":"5c5faf6bfc13ae757500079a"},"numero":947,"codigoChip":"0000000000AF0FFF"},
{"_id":{"$oid":"5c5faf6bfc13ae757500079b"},"numero":948,"codigoChip":"00000000000056ED"},
{"_id":{"$oid":"5c5faf6bfc13ae757500079c"},"numero":949,"codigoChip":"000000000C7396EF"},
{"_id":{"$oid":"5c5faf6bfc13ae757500079d"},"numero":950,"codigoChip":"0000000000566EFE"},
{"_id":{"$oid":"5c5faf6bfc13ae757500079e"},"numero":951,"codigoChip":"0000000059F4269F"},
{"_id":{"$oid":"5c5faf6bfc13ae757500079f"},"numero":952,"codigoChip":"00000000000DD9E2"},
{"_id":{"$oid":"5c5faf6bfc13ae75750007a0"},"numero":953,"codigoChip":"0000000000057CF0"},
{"_id":{"$oid":"5c5faf6bfc13ae75750007a1"},"numero":954,"codigoChip":"000000000E311F09"},
{"_id":{"$oid":"5c5faf6bfc13ae75750007a2"},"numero":955,"codigoChip":"000000000000FAF2"},
{"_id":{"$oid":"5c5faf6bfc13ae75750007a3"},"numero":956,"codigoChip":"0000000000F5F789"},
{"_id":{"$oid":"5c5faf6bfc13ae75750007a4"},"numero":957,"codigoChip":"00000000008EFFDF"},
{"_id":{"$oid":"5c5faf6bfc13ae75750007a5"},"numero":958,"codigoChip":"0000000000002E7F"},
{"_id":{"$oid":"5c5faf6bfc13ae75750007a6"},"numero":959,"codigoChip":"000000000D59FDFD"},
{"_id":{"$oid":"5c5faf6bfc13ae75750007a7"},"numero":960,"codigoChip":"000000000F27F71F"},
{"_id":{"$oid":"5c5faf6bfc13ae75750007a8"},"numero":961,"codigoChip":"000000000000F350"},
{"_id":{"$oid":"5c5faf6bfc13ae75750007a9"},"numero":962,"codigoChip":"00000000001FFE83"},
{"_id":{"$oid":"5c5faf6bfc13ae75750007aa"},"numero":963,"codigoChip":"000000000007DF2E"},
{"_id":{"$oid":"5c5faf6bfc13ae75750007ab"},"numero":964,"codigoChip":"00000000000331AF"},
{"_id":{"$oid":"5c5faf6bfc13ae75750007ac"},"numero":965,"codigoChip":"000000000000F2AD"},
{"_id":{"$oid":"5c5faf6bfc13ae75750007ad"},"numero":966,"codigoChip":"00000000000010DF"},
{"_id":{"$oid":"5c5faf6bfc13ae75750007ae"},"numero":967,"codigoChip":"00000000002FEF17"},
{"_id":{"$oid":"5c5faf6bfc13ae75750007af"},"numero":968,"codigoChip":"000000005079EEBB"},
{"_id":{"$oid":"5c5faf6bfc13ae75750007b0"},"numero":969,"codigoChip":"0000000000006833"},
{"_id":{"$oid":"5c5faf6bfc13ae75750007b1"},"numero":970,"codigoChip":"00000000054F68F6"},
{"_id":{"$oid":"5c5faf6bfc13ae75750007b2"},"numero":971,"codigoChip":"000000000005D1F1"},
{"_id":{"$oid":"5c5faf6bfc13ae75750007b3"},"numero":972,"codigoChip":"00000000DE4F8FE2"},
{"_id":{"$oid":"5c5faf6bfc13ae75750007b4"},"numero":973,"codigoChip":"000000007F8892ED"},
{"_id":{"$oid":"5c5faf6bfc13ae75750007b5"},"numero":974,"codigoChip":"000000000000CEC7"},
{"_id":{"$oid":"5c5faf6bfc13ae75750007b6"},"numero":975,"codigoChip":"00000000000041EC"},
{"_id":{"$oid":"5c5faf6bfc13ae75750007b7"},"numero":976,"codigoChip":"000000000000E19F"},
{"_id":{"$oid":"5c5faf6bfc13ae75750007b8"},"numero":977,"codigoChip":"0000000000CE4F7F"},
{"_id":{"$oid":"5c5faf6bfc13ae75750007b9"},"numero":978,"codigoChip":"000000000000FE7F"},
{"_id":{"$oid":"5c5faf6bfc13ae75750007ba"},"numero":979,"codigoChip":"000000000000FFE1"},
{"_id":{"$oid":"5c5faf6bfc13ae75750007bb"},"numero":980,"codigoChip":"00000000000A521F"},
{"_id":{"$oid":"5c5faf6bfc13ae75750007bc"},"numero":981,"codigoChip":"00000000000F54FF"},
{"_id":{"$oid":"5c5faf6bfc13ae75750007bd"},"numero":982,"codigoChip":"00000000F87087FF"},
{"_id":{"$oid":"5c5faf6bfc13ae75750007be"},"numero":983,"codigoChip":"00000000000A526D"},
{"_id":{"$oid":"5c5faf6bfc13ae75750007bf"},"numero":984,"codigoChip":"000000000000FDE2"},
{"_id":{"$oid":"5c5faf6bfc13ae75750007c0"},"numero":985,"codigoChip":"00000000000028F1"},
{"_id":{"$oid":"5c5faf6bfc13ae75750007c1"},"numero":986,"codigoChip":"000000000000E1E2"},
{"_id":{"$oid":"5c5faf6bfc13ae75750007c2"},"numero":987,"codigoChip":"00000000000FF0FF"},
{"_id":{"$oid":"5c5faf6bfc13ae75750007c3"},"numero":988,"codigoChip":"000000000007F1C4"},
{"_id":{"$oid":"5c5faf6bfc13ae75750007c4"},"numero":989,"codigoChip":"000000000DFFDE43"},
{"_id":{"$oid":"5c5faf6bfc13ae75750007c5"},"numero":990,"codigoChip":"000000000EE29021"},
{"_id":{"$oid":"5c5faf6bfc13ae75750007c6"},"numero":991,"codigoChip":"00000000DE10F5F6"},
{"_id":{"$oid":"5c5faf6bfc13ae75750007c7"},"numero":992,"codigoChip":"0000000000098268"},
{"_id":{"$oid":"5c5faf6bfc13ae75750007c8"},"numero":993,"codigoChip":"00000000D7374F9F"},
{"_id":{"$oid":"5c5faf6bfc13ae75750007c9"},"numero":994,"codigoChip":"000000000F8F4699"},
{"_id":{"$oid":"5c5faf6bfc13ae75750007ca"},"numero":995,"codigoChip":"00000000E97FFFFF"},
{"_id":{"$oid":"5c5faf6bfc13ae75750007cb"},"numero":996,"codigoChip":"0000000000FE45E6"},
{"_id":{"$oid":"5c5faf6bfc13ae75750007cc"},"numero":997,"codigoChip":"00000000000DFF4F"},
{"_id":{"$oid":"5c5faf6bfc13ae75750007cd"},"numero":998,"codigoChip":"00000000000DF3E4"},
{"_id":{"$oid":"5c5faf6bfc13ae75750007ce"},"numero":999,"codigoChip":"0000000000E07E76"},
{"_id":{"$oid":"5c5faf6bfc13ae75750007cf"},"numero":1000,"codigoChip":"0000000000F2F876"}]