000000000009F0DB 145554
00000000F2CAFF3E 144555
000000000000E5FD 112544
000000002F0233E3 143055
0000000000F6F06F 124535
000000001D039FF5 145255
0000000091040E9E 134555
0000000000E940FF 111443
000000000FF5DFEC 145525
0000000006F792F8 144455
00000000E4DFFF08 145044
00000000000FCFE6 141555
000000000000FDEF 134555
000000000799FD4F 135453
000000007EF3DFEF 144515
000000000000EFFF 125255
000000000087AF01 134453
0000000000067E0F 144555
00000000FFE0F23F 145543
00000000FFFFFE52 145542
000000000000F3B2 134515
00000000002FF2DE 144544
000000000F746F63 134544
000000000001F8FE 145455
0000000000E6FFE7 145435
00000000000B8DF2 145451
000000000074719B 142435
000000000DEFFCE0 144554
000000000002851F 144555
00000000098FF756 144355
00000000007EE9FF 130555
000000000FF7FE43 125444
0000000000009E5E 145455
000000000FB4DFFE 145545
0000000000001F4D 130454
0000000000001F1F 142555
00000000E67DFE2F 133445
00000000000DE1A8 135541
00000000006E59F2 144555
0000000000000972 134510
00000000000050FF 133024
00000000000FC7D1 145035
000000000E9BF97E 113531
000000005FFEFDF5 135454
00000000004FC1EE 133435
0000000000004F09 145153
00000000F7EEE9F1 110444
00000000FFFFF953 145543
000000000CA6F41F 135435
0000000008F5E6EF 143354
0000000000C15FFF 144530
0000000000F870E1 143455
00000000005FFD7E 144541
000000004F280F66 135345
00000000005F60FF 140453
00000000007C9B5F 135424
00000000C053F0F3 143450
000000000004EF71 125555
0000000000005BF4 145444
0000000000007BF3 134555
00000000FEDFE0F2 113315
00000000E87B1843 145443
00000000000034CF 142554
00000000E2F5EEE1 141545
000000000000FF0E 114555
00000000FB6EF41F 125534
000000004F961F01 142525
00000000083F2800 135454
000000000000FBFF 115544
00000000009F0FDF 144414
0000000000EE8D9E 135302
000000000000F9EF 135433
0000000000F9FFCF 124431
0000000000063EF8 145555
0000000000EF2934 114545
000000000059AF3E 142555
00000000003EFC0F 145555
000000002252E7FA 145544
0000000000FEDE4C 121555
000000006EF4FFFE 140155
00000000000095E5 144403
00000000000FE6F7 145542
0000000000EE2FEF 144455
0000000000009F14 142435
0000000000E96F32 115354
00000000000036F7 144555
00000000000FFFCE 145535
00000000AFDF69F0 123250
000000000000E7FF 133355
00000000000201D9 145544
0000000004FFDFEE 145545
000000000007EF68 142554
000000000D981DF4 144425
00000000F62D8427 142455
00000000FE54F6FF 145054
0000000000007DF3 145354
000000000000FFF2 144245
0000000000198707 134545
00000000002CDCFE 133554
000000000B7EF7FF 143545
000000000338F3E2 144255
000000000009AD2E 141353
000000000FC7CE4F 144552
0000000000F59DEF 143532
0000000000FFE0E1 145245
0000000001FF775F 134045
000000000000404F 144534
000000000000403E 133420
000000000000D51F 143555
0000000000E86196 133554
00000000000FD90A 144545
00000000F51ED07F 135055
00000000000E7F3D 134555
0000000000DE553F 145235
0000000000085CFF 124355
000000000098453F 135525
0000000000007ED9 145535
00000000000F1EF0 123445
000000000000EF4F 141025
000000007FAD617F 135514
00000000EDF48F6E 135555
00000000D873FF8A 145445
00000000548F25E9 145555
00000000000F12F2 143455
000000000054DC47 145245
0000000000002193 142455
0000000000963ED8 145245
000000000873DFEE 115544
0000000000EE65FA 135211
000000000006212E 135554
00000000000069EF 135555
0000000000CFF8B8 113553
00000000000CEF10 115553
000000000FFEF656 145355
000000000000FFF9 122453
0000000000005FF8 145214
00000000014FE43D 135545
00000000005EFAD8 145555
000000000000B1FF 145454
00000000FF0D8FFF 124555
000000000000F4DD 135355
00000000000510D4 135555
0000000000A43638 135555
000000000000171F 133554
0000000000001F67 144545
0000000000EB97A9 125445
000000000005B109 143354
00000000008ED3DE 144453
000000000000FEF2 133551
0000000000024FEC 125545
0000000000E3FE9F 142335
000000000000E86E 145353
000000000000DFF2 144454
00000000E44EE7FF 145550
00000000F0FFAF4F 144354
00000000005F9C7D 145553
00000000013609C9 145515
000000000000F1F0 114553
00000000004EFFE8 145555
00000000000EFD18 115550
0000000000008099 132455
000000000000937D 125353
000000000000F8FF 145415
000000000000E550 145553
00000000701D8EE9 141445
000000006F7E8F36 125452
00000000008F38DC 145543
000000000004FFEF 125555
0000000006EF36E5 135445
0000000000076E9D 125545
000000000021F540 145555
00000000009DF829 145445
000000000001F2FD 143454
00000000000BEFED 145455
0000000000062173 144533
000000006E644618 145453
000000000943F09E 115354
0000000000469498 135545
000000000000F582 144254
000000008F59364F 115343
000000000024F8A6 145352
0000000000014F89 145255
0000000000002F68 125404
0000000000EFE520 125324
000000000F08ED0F 143445
000000000F4FEE93 114545
00000000C3F31AF7 114555
000000000F7E98E0 134344
00000000E5FE162F 135505
000000000E6E55FD 115445
000000000DE75DF8 124534
000000000000EFE4 143535
000000009ECE65F0 143555
000000000009144F 144354
000000000047ED2F 135545
00000000390E5085 145515
00000000000E4E5B 145352
000000000001D8D1 113433
00000000008FF51E 143435
0000000000A66EF4 145435
00000000005EDF70 135430
000000000000F3FF 123451
00000000DD91AF2B 123525
00000000000D1FAF 142535
00000000E7385FEC 134355
000000000000265D 145554
0000000000718D9D 145555
0000000000F3E70F 145333
000000000074E03A 143455
000000000000CFCF 115453
0000000000FFDFAF 135553
00000000000D0F67 145454
0000000000000342 145545
00000000000EE0CC 122435
0000000000E5F05C 135554
000000000000FD07 145045
000000000001EF83 114355
000000000E7CCC21 142555
0000000000008CF1 125425
0000000000FEE4FE 134555
00000000000FEF58 143355
000000000000889C 133533
000000006587DED7 145555
0000000000009F45 135535
0000000000005F0F 135344
0000000000E1563E 141554
0000000000007F7C 145545
00000000008666ED 130545
0000000000E2EEC8 134554
00000000000E0F98 115544
00000000000AF0FD 145535
000000008446DE20 144555
00000000F2B7F48F 145043
000000000FFEEDED 144544
0000000000000FF4 144525
000000000DE08F12 143455
00000000000FEEFE 141055
000000000000F6DF 135554
00000000000887F9 124434
000000000437E1FC 145552
000000001FACFF0E 135355
00000000002EF77F 125525
000000000FD41690 143455
000000008F06205F 144225
000000000009F2FC 135554
00000000F4C308FF 145445
00000000E28DEE67 125455
000000009F2014E3 145452
00000000000DF7E7 145153
00000000000F06FF 135335
0000000004F2D8E6 120543
00000000000FF88F 145552
00000000000F70C0 143555
00000000023B6148 135140
000000000087D850 145442
0000000000009F3A 114555
0000000000B8EF5D 145535
0000000000005F3F 135233
000000000000FFF9 144554
000000005D0E992A 145305
00000000000024FF 125355
0000000000D4B3F2 130554
000000000000F889 114324
000000000000DED2 144252
000000000009C159 135515
000000000000C2F8 145555
000000000E1000C2 114455
000000000AEF51F3 145445
00000000000F3241 134344
000000008E0F495F 120544
0000000003FFF3BB 113535
00000000008F4E13 145314
0000000057FFE56E 145545
000000000010D40E 133354
0000000000059458 125253
000000000000EE6F 144432
00000000000CB73C 135553
000000000002F82F 115350
00000000005EFED0 145544
0000000008D8D251 140555
0000000000FF810F 145453
000000000000EF07 144355
000000000000FE11 145542
0000000007FF480F 115524
0000000000007353 110552
0000000000003851 142443
00000000000C2132 143455
0000000092A9E306 125325
00000000000029F0 142455
0000000004D3F2FF 140435
000000000C267EEF 134355
00000000000048AE 143544
000000000000296F 113553
0000000000DEDD23 133553
0000000000007FF9 113544
000000007F4583EE 135545
00000000D08F1733 144552
0000000000D56FEF 145445
00000000F5ADE580 124455
000000000000657F 144242
000000000000E3F6 135555
00000000024FF0FE 145354
00000000000B5CC1 145333
00000000000E5EFF 145550
000000000000222F 134550
000000000000F3FF 124345
0000000003EFEFFE 145553
00000000000D1505 123545
000000000852FFFE 144555
0000000000009C1E 123455
000000000000FEFE 142453
00000000000422E6 144355
000000000068FE44 113045
0000000000FFE196 135150
00000000000EAF31 144555
00000000CFF5C85E 135441
000000000EF97F8A 123543
00000000000EFDD2 135555
000000000000CFBE 144445
000000000008F464 145342
000000000000FD67 145544
00000000062538E0 145553
000000000B210CF0 141533
0000000068FFFF72 145554
00000000000F9EDF 145055
00000000000D9F23 144514
00000000000BEED5 124551
0000000008F7F18E 125534
00000000780FC0B6 145245
00000000000EF6C1 135054
0000000000E58F3F 144353
000000000E9F5F5C 145551
0000000002FB0985 145140
0000000000080220 123524
00000000FDF1CAFF 142552
000000000F466DF8 145551
0000000000082EEF 144554
0000000000008F9F 144555
000000000060CE7E 144504
0000000000E6FDFE 145355
00000000007E54F9 145535
0000000000557FEA 143555
00000000322E38FF 125553
0000000087F5E9FE 134550
00000000000286E6 145555
00000000000FE93C 135454
000000000FDED298 140445
0000000000071EF1 144555
00000000D5CF3F5F 143454
000000000000F5E8 145544
0000000007EFE717 145444
00000000FF692209 144555
000000000000FBEF 145555
000000000000FEFE 124535
00000000A9123880 124545
000000000E5F025E 115354
00000000000F6E0F 142455
00000000000F5837 145322
00000000CA5D9E90 135535
0000000000FEE89A 125455
0000000000DE3E85 125555
0000000000FF7ED9 145253
00000000000220F3 142544
0000000024CDFE0E 144144
000000009EFF0128 123553
000000000000EFB3 113514
0000000000003F3F 130455
000000000000236F 134554
0000000000004FDE 145343
0000000000424983 115553
000000000FFF7EF1 143352
0000000000E9FC0F 144445
000000004F3DF2E3 115223
0000000000879D0D 135551
0000000000572424 125555
0000000000009849 134535
000000009FF071DF 140455
000000000F67FDE9 115432
000000000071FFF6 145053
000000000000701F 143555
0000000000004A23 130545
0000000006F36F74 133351
0000000059D06B2B 134550
00000000F30E52F2 134455
00000000000E7E40 133444
000000000E29FCFE 144555
000000000DFDEF12 145444
00000000F1F94FF7 124555
0000000078FC5F86 134222
000000000A0998E7 144344
000000000005E984 125555
00000000000AEFED 145544
00000000028FFFFF 112552
0000000008F5FAEF 115154
000000000000B323 145545
0000000047020C29 145452
0000000000007EE6 135344
00000000000404FD 113445
00000000FF4C6CDF 144240
0000000083342389 143554
000000000000F074 125413
00000000075F6F2E 134454
00000000DD354DF7 142553
00000000002E2F8F 143435
0000000071E5E987 115345
0000000000FC42E4 143550
0000000000009FFF 111535
0000000009CED3FF 145445
0000000007F4F891 141451
0000000000003F6D 135545
0000000000006FEE 135534
00000000306CFE2F 134555
0000000000E763C3 135555
000000000048961F 135444
0000000001BFCFF5 145454
000000000F7FA2EF 124444
0000000000002FEF 144455
0000000000002EF3 115435
00000000001E52FE 133555
000000000000BFEB 115335
00000000000087E4 144551
0000000007E07DD1 135234
000000000FF4475D 145445
00000000D8F276E4 143534
000000000726E0F7 114554
0000000003A5462E 145354
00000000F57F766F 134350
00000000ED3F923F 125440
000000005EF2F033 114245
0000000000132EEA 141355
000000004EF58157 115553
000000000FAA52A8 130355
000000000DFEFBF1 134511
000000000000F240 145255
00000000000027FF 134553
0000000063BDFFFD 143534
00000000000005F5 145555
0000000005F6F42E 135445
000000000007FD9E 113454
0000000000D11F7E 134135
00000000000FF2FF 144555
00000000000E96D2 140554
00000000000567F5 124554
00000000000095DF 115553
00000000F47F60FF 145455
00000000000035C5 132335
00000000000774E7 125333
0000000000CF8E2E 143351
00000000DEFC5202 143555
0000000051FFF944 114544
000000007FEF35F0 142434
00000000D3FFFF6F 145544
000000000FAFFF56 144535
0000000000048903 145443
00000000026E9F5C 135554
000000000D202FFF 114354
00000000005C2EF5 114542
000000000D14FBE1 132545
0000000006640FC6 145524
00000000000FF7E6 114425
000000000009FE22 145523
0000000000000F3F 135544
0000000008EF1288 133344
000000000FFAF145 133445
000000000000FF05 145352
000000000893D540 114452
000000000F87CF2F 145540
0000000001CE9F64 145553
00000000000F323D 145553
000000000000559E 145554
00000000FF39CF3E 124333
0000000000498F03 141452
000000000000C6F9 145555
0000000000590FF1 130455
00000000000030FF 145444
0000000000008FFF 115355
000000000E3FF7F6 141553
00000000000F88FD 140144
00000000000EFE90 125543
000000000FF4F561 115513
000000002EC04FFF 113023
000000000000F37D 145525
000000000006ECE9 145534
000000000007FF51 145454
00000000DFFE5A8F 144433
000000000FD8FFF2 145454
0000000000FEAF9F 135535
0000000000F747FD 145553
000000000000FAF9 115545
00000000000FFF9F 145152
000000003FF1F6ED 133444
000000000061FEF8 145554
0000000000EB6F8E 124542
00000000FED40FA9 125125
00000000008FFCF2 145455
00000000001FF00F 145554
00000000E4E70299 142304
000000000FFE9278 143555
00000000000D0C07 144554
000000000004E08F 113044
000000000013DEFF 135535
000000000F1FE7F6 113205
000000000005EFFE 124355
00000000000F97ED 143224
00000000002ADFFF 124144
000000000F695DE7 145555
0000000004693F1D 142355
000000000B5EF4F6 125444
00000000FE6F3FF8 125451
000000000001416C 113554
000000000007035F 134524
0000000000E2812F 134055
000000001F0F2E71 145455
0000000000F2FFAF 144455
000000000000FFE4 145444
000000005FF1896D 143534
000000003277EFDC 144355
000000000F083DEE 143545
00000000FEC8FF2F 143045
00000000DFEF9142 135555
00000000001BD69E 143521
00000000B93EF4E1 145523
00000000000EF1C2 144545
00000000000BF0E8 144541
00000000000057F1 145445
0000000082FFDE3F 142555
00000000056ECFE0 143354
0000000000618FEF 144455
000000007F22DFEF 135405
000000002F0F6FEF 113350
0000000000E5EF84 144554
0000000000036F70 123555
0000000007FEF6BF 145454
00000000000D2901 144554
0000000000CE66AE 145554
0000000000F032EE 145532
000000000D69623E 142454
000000000FEFE7FF 145245
000000000000F3FE 135545
0000000000FF2F5B 135555
000000000000E44F 145444
00000000000E2FED 144555
0000000000063863 144545
0000000000028EEF 144554
000000000DD11E98 145455
00000000E304E3FE 134553
0000000046180143 145545
0000000000E9412F 112555
000000000000290F 145455
000000000000E42F 145555
0000000000EE4E7F 133534
000000000FFDD9FE 143533
0000000000FF048F 112545
000000000D0EF4E7 114454
00000000FD3DF47F 144455
000000000000F713 133555
00000000000EEFF3 144554
000000000000FF03 145154
00000000F0FD3B3D 145521
00000000005826FF 125554
000000006FFFFFE4 122555
000000000078D9EF 135455
000000001F81FE9F 130555
0000000000098F06 135352
0000000000004435 142434
0000000000004F5F 134555
0000000099FDF4F4 144342
00000000000CF3EF 135434
0000000000006EFF 124555
000000000F9E10FF 132554
00000000000DFDF0 134554
0000000000FDB394 144554
000000000EE85FF0 144253
0000000008ED9FD3 141525
000000000EFFD9AE 143525
0000000000050EDD 145553
00000000000FEF2E 135535
0000000004D177E9 135143
000000000000F6E1 135145
0000000007F990FF 112554
000000000000765E 145555
0000000063F8ECA1 135455
00000000005F5CC2 113455
000000007B26EF8E 144355
00000000008038F7 114144
000000000000F92F 133435
0000000000F4FAFD 123155
0000000000013D4E 114215
000000000000F7D6 144444
00000000000075EB 134535
000000000000F2E2 125555
000000000000F31E 135425
0000000000EF3F07 144514
000000000004983D 125455
00000000000041FD 142355
00000000000060F4 134244
0000000045E3F5C2 144354
000000000000FF52 114335
0000000007099FEF 144435
00000000358F172F 144445
0000000000003EF1 144554
000000000000E0E9 125555
000000000EFEC5CF 144545
00000000000EFFDF 144512
000000000C5F8835 140254
00000000000F19E6 145444
00000000000F3FFE 112552
00000000000CE4FE 145255
00000000000F65F9 145245
000000000004E340 145555
00000000000F89FD 144543
00000000042B7DA7 145555
00000000009F8F2F 145124
00000000000EFF31 114553
0000000000007554 124555
000000000007FE67 114255
00000000000F92AF 145554
00000000BF8DC5F7 114552
000000008E6FFFFF 135554
000000000FFE2FB3 124455
000000000BEFC519 145544
000000000008E371 145545
000000000000138B 143542
000000003FE06F67 144455
000000000000E6DD 143555
000000000000F0FC 145555
00000000006F145C 125423
0000000000E0F8FF 144405
0000000000000F7D 145555
000000000F4E07CE 135554
00000000007F1134 145145
000000000DC3E860 131555
00000000000FDDDF 135544
000000000009E339 135555
00000000004F23FF 134555
00000000C7F8FE00 113534
000000005E0D8FD8 141533
000000000C403EF8 145355
000000000000FE8E 144545
000000000F62E43F 143454
00000000000FB694 143455
000000007E6F9EF4 135554
000000000675026D 145551
00000000E3F4E38F 145453
0000000000005EF9 123534
000000000034EB8D 135554
000000000F12E411 145554
000000000089EE7E 143535
00000000A58EE354 125335
0000000000750F47 134545
000000000FFFD0E9 145445
0000000000EE6F2F 133554
00000000446FFC47 125535
00000000000F0F7D 145550
00000000CE83D553 145534
00000000004FEEF7 145044
000000000001F16E 125455
000000000008C3F0 142534
000000009F50949F 144055
00000000E3A1F653 145553
000000004F16FF11 145554
000000000EFFF11F 145534
0000000000F20355 143512
000000000FE6F4CD 144515
00000000000E1F3F 124224
0000000000008CFF 145534
0000000000E8FCFC 144555
000000004E3CCAFC 115445
0000000000EFE3CC 125140
00000000007F35E5 124554
0000000000FFF5F9 114454
00000000000EC6E0 145535
00000000008E6416 134353
0000000000006FEF 135535
000000000009CDF3 135455
000000000008FD9F 145445
00000000008BDFFF 115432
00000000000FFB1B 115555
00000000005FDE1F 145345
00000000095A0E21 145455
00000000E805EB73 121445
0000000000089EC2 135333
0000000000C0FFD5 124455
0000000005FF6F56 143155
000000000003FFA4 134455
00000000000E6D55 114535
0000000000005F06 144454
00000000004DF677 145545
00000000F0E20EE2 143455
00000000919E6732 145255
000000000000A25C 134552
00000000F381FF7B 144545
00000000F068AFC1 135555
0000000000064503 135345
00000000005F0BF9 122541
0000000000E3F3F3 135551
0000000000008FD7 145554
000000000004764F 144324
000000000A8FCF06 135344
000000000000DFF1 140344
0000000007656FF5 145553
00000000003F78F8 145353
000000000BF8F0F0 115244
0000000000007FF2 145045
0000000000EF8089 125545
0000000004F8794F 135315
000000000000D23F 141555
000000000F448B32 143444
00000000000027F6 140433
000000002FF5FD18 134554
0000000000009F78 125524
00000000000FD0A2 125435
00000000000DEF1F 125544
00000000001700FE 115525
00000000000CFC60 124425
000000000004C14E 145525
0000000000010EEC 145345
00000000006DEFF7 112451
000000007383E1FF 145455
00000000006EFE29 143455
000000000DEFE4C0 115155
000000000068C9FD 115134
00000000000222F7 115550
00000000000FF3FF 145555
0000000000AFE6A7 134452
0000000000008F7F 144555
00000000000F3038 135553
000000000000FF1E 145545
000000000008C5F5 133135
00000000000F6F92 112552
00000000000077B9 145445
0000000054EE1F9C 145451
000000000F68FCFF 142555
000000000F939D83 115224
000000000E2FFF71 145241
0000000000FF7466 115522
00000000F48EFF20 122045
0000000000006FF8 124554
0000000008E1204D 125405
0000000000004D10 145555
000000000000E0EF 142555
000000007222189D 124354
000000000000406F 145353
00000000E62F9D2D 145055
0000000000FE0FE6 113555
0000000000FFDDC2 144425
000000000FEF6F27 133535
0000000000001F5C 143534
0000000000084660 144555
0000000000E293F8 143554
000000000000FF62 121444
000000000EC6E3E0 125550
000000000007FF8E 145345
00000000000063EF 142543
00000000008D8911 134544
00000000000088F2 133452
00000000000063FE 135302
000000003C72FF36 115555
00000000000189FF 114545
0000000001EECF1F 134455
000000000FFF6F6E 145454
000000000BF9FF0E 124055
0000000000006F78 144544
00000000000974FF 143553
0000000000043F86 143545
0000000008E36DFE 135041
000000000000FD1E 142425
0000000045DAF1ED 145443
00000000006FF24E 145445
00000000EFF87855 125524
00000000000874F2 144552
000000003DCE7888 124354
000000000000BE27 135555
00000000E0ED8F9D 125455
00000000000DFE8F 115150
0000000000009EE7 145535
0000000000721085 133555
000000000EF1C3E5 125355
0000000000004C44 124545
000000000000FCF4 113355
000000000000EF3B 135545
000000000001EFFF 144552
0000000000097407 125554
000000000000F58C 134503
000000000000DFC0 144454
000000000004F7CE 145245
000000000003986F 115535
0000000000F06EE4 145534
00000000860FF1F5 135435
0000000000008F2F 121325
000000000000FFD6 144444
0000000000D1F2F1 143554
0000000000613FFF 145544
00000000005EF6FF 142455
0000000000C9D13F 141455
000000000D0F193E 144551
00000000000FE636 145455
0000000000FF8C54 135545
00000000000E9C2E 132435
00000000009E9DFA 123441
000000000C53F482 135555
000000000000D208 133545
0000000000005F4C 123444
00000000036311FF 145450
0000000002415E5F 142335
00000000000DA27F 143443
000000000056AE80 135545
00000000AF3434FE 145445
0000000001DD19EE 144555
0000000001F98FD0 134552
0000000000001D73 124454
0000000000006657 145555
0000000007EEEEF0 125550
0000000009F55FF5 125555
00000000035F6F50 145554
0000000000EAE8F7 140553
0000000000002025 143453
0000000000001B7F 142543
00000000FBFFDE2F 145035
000000000003E264 132554
0000000000009EA7 112504
000000000000C9F5 125424
0000000000007442 143442
0000000000F6F9DF 144445
0000000000007EF5 125535
000000000DD96DF8 145534
0000000000070E58 132053
00000000000171FF 145243
0000000000FB2FF1 143504
0000000000066D14 123554
0000000004F2C0F4 114555
000000000000EEE9 130355
0000000000001518 144535
0000000024F8E72D 112425
00000000FBF6DFED 115455
0000000000F6DEC8 125354
000000000000FFE0 144455
0000000004DFF9EF 114554
000000009FF9FDF0 135445
000000000010DEF0 144145
000000000C0F3EE7 134353
00000000000FF0D4 144435
00000000001FA8FF 141244
00000000835FFCD1 124544
0000000003D2C9FF 143544
0000000000003FC8 142445
00000000F8FD27F5 130553
0000000000FFFF6E 142445
0000000096F04FDC 133355
000000000000E28F 143445
00000000FE6FCF6E 144554
0000000000E6FE89 145453
0000000000FFF2FD 145545
000000001FC4FB25 134253
000000007F245636 115242
00000000FB5F2FD8 115555
0000000000004278 143524
000000000FF39EF2 134554
000000000004FF7D 145255
000000000383BFFF 145545
0000000000FFE19F 135352
00000000007003E4 145551
00000000000F4F2F 135455
000000000000070E 145455
00000000006F956E 145240
000000000FF4BF26 135524
000000006590EE8D 134555
00000000FB864F38 145454
0000000008E4F3EF 145455
00000000FE4877F0 135554
000000000314FD0F 125413
0000000000F65E63 145544
0000000000031FFE 140341
00000000F39EF2EF 125233
000000000008FDAF 114455
0000000000004D2D 125544
0000000000AF54CF 135453
000000000F5F1F5D 133555
000000000000FE82 143550
00000000005DE4DF 135543
0000000042D9DDE2 145555
00000000000F799F 145445
000000004E3DDF80 135345
00000000AB26FD8D 143315
000000000F58EE1E 145504
0000000000320FAF 144555
000000000096D1F1 135545
000000000FFE2FF4 124514
000000000DF74554 143555
0000000000F4E270 135402
000000000000903F 134250
000000000FEF8EFF 135555
00000000AB6FECFF 113445
00000000000CE93F 114555
000000000F94F4F9 145452
000000000012E469 145425
000000007F7731E6 135544
00000000052DEF8F 145555
000000000002D131 145525
0000000000070E16 145445
00000000002695FF 144145
0000000001F838F1 134551
00000000000075F4 112555
00000000008F4E66 124555
00000000000098F8 145554
00000000009F5B70 143525
000000000C2E555A 143444
00000000003E6F94 144235
0000000008BF71D3 144435
00000000E6F788D2 145535
0000000000013F2F 144442
000000000005F362 145235
0000000004FFEF76 115535
0000000000F390E5 145124
000000000E1DFE17 120555
000000000000F5F7 125225
000000007C503FDF 135451
000000000005F5FC 145155
0000000000EE731F 131345
00000000354F4195 143552
00000000005156FE 135450
0000000000008336 134343
0000000000AF49EC 122554
0000000000F8F6FF 144455
0000000000008258 125555
00000000000054E9 144555
0000000000F6F4F8 111154
000000000C9F816F 145455
00000000FF5F15F0 124045
0000000000030611 135354
00000000000FF9C2 134413
000000000005F842 144555
00000000000EFDFF 115445
00000000000AF3F1 114244
00000000E4FF3DCE 124524
000000000000BA8F 135554
0000000007EFFCDB 115525
0000000002FCF5FE 135453
0000000000DFFF0E 134325
00000000E59E5DEF 134335
000000000000CE69 144555
000000000082FEDF 145545
0000000000078F74 135455
0000000000002F9F 145442
0000000000004984 115542
000000000000EFF2 125454
0000000000AF0FFF 114532
00000000000056ED 145005
000000000C7396EF 124554
0000000000566EFE 142405
0000000059F4269F 145350
00000000000DD9E2 145553
0000000000057CF0 135545
000000000E311F09 144555
000000000000FAF2 144444
0000000000F5F789 144352
00000000008EFFDF 115555
0000000000002E7F 142255
000000000D59FDFD 115154
000000000F27F71F 143445
000000000000F350 145553
00000000001FFE83 135555
000000000007DF2E 140515
00000000000331AF 144552
000000000000F2AD 143453
00000000000010DF 145235
00000000002FEF17 144454
000000005079EEBB 145545
0000000000006833 142525
00000000054F68F6 144433
000000000005D1F1 115234
00000000DE4F8FE2 145112
000000007F8892ED 115345
000000000000CEC7 145554
00000000000041EC 115505
000000000000E19F 145544
0000000000CE4F7F 124545
000000000000FE7F 134555
000000000000FFE1 125434
00000000000A521F 133255
00000000000F54FF 145554
00000000F87087FF 144554
00000000000A526D 125555
000000000000FDE2 133454
00000000000028F1 114555
000000000000E1E2 135445
00000000000FF0FF 145255
000000000007F1C4 135554
000000000DFFDE43 142555
000000000EE29021 133554
00000000DE10F5F6 144555
0000000000098268 115345
00000000D7374F9F 144445
000000000F8F4699 143554
00000000E97FFFFF 134554
0000000000FE45E6 125414
00000000000DFF4F 144555
00000000000DF3E4 144551
0000000000E07E76 135355
0000000000F2F876 144424
4444400000F2F876 144424